step,video
5,Tennis_24fps_scaled_1RP.mp4
6,Tennis_24fps_scaled_3RP.mp4
7,BigBuckBunny_25fps_scaled_2RP.mp4
8,BigBuckBunny_25fps_scaled_4RP.mp4
10,colour_boats_30fps_scaled_0RP_P1_black.mp4
11,colour_boats_30fps_scaled_1RP_P1_black.mp4
12,cow_30fps_scaled_0RP_black.mp4
13,cow_30fps_scaled_1RP_black.mp4
14,colour_boats_30fps_scaled_0RP_P1_black.mp4
15,colour_boats_30fps_scaled_1RP_P1_black.mp4
16,colour_boats_30fps_scaled_2RP_P1_black.mp4
17,colour_boats_30fps_scaled_3RP_P1_black.mp4
18,colour_boats_30fps_scaled_4RP_P1_black.mp4
19,colour_boats_30fps_scaled_3RP_P1_black.mp4
20,colour_boats_30fps_scaled_4RP_P1_black.mp4
21,cow_30fps_scaled_0RP_black.mp4
22,cow_30fps_scaled_1RP_black.mp4
23,cow_30fps_scaled_2RP_black.mp4
24,cow_30fps_scaled_3RP_black.mp4
25,cow_30fps_scaled_4RP_black.mp4
26,cow_30fps_scaled_1RP_black.mp4
27,cow_30fps_scaled_2RP_black.mp4
