step,video
5,Tennis_24fps_scaled_1RP.mp4
6,Tennis_24fps_scaled_3RP.mp4
7,BigBuckBunny_25fps_scaled_2RP.mp4
8,BigBuckBunny_25fps_scaled_4RP.mp4
10,FoxBird_25fps_scaled_0RP.mp4
11,FoxBird_25fps_scaled_1RP.mp4
12,Seeking_25fps_scaled_0RP.mp4
13,Seeking_25fps_scaled_1RP.mp4
14,FoxBird_25fps_scaled_0RP.mp4
15,FoxBird_25fps_scaled_1RP.mp4
16,FoxBird_25fps_scaled_2RP.mp4
17,FoxBird_25fps_scaled_3RP.mp4
18,FoxBird_25fps_scaled_4RP.mp4
19,FoxBird_25fps_scaled_3RP.mp4
20,FoxBird_25fps_scaled_4RP.mp4
21,Seeking_25fps_scaled_0RP.mp4
22,Seeking_25fps_scaled_1RP.mp4
23,Seeking_25fps_scaled_2RP.mp4
24,Seeking_25fps_scaled_3RP.mp4
25,Seeking_25fps_scaled_4RP.mp4
26,Seeking_25fps_scaled_1RP.mp4
27,Seeking_25fps_scaled_2RP.mp4
