{
    "executorId": "PSNR_V1.0", 
    "asset": {
        "identifier": "cmd_7925494904543546_7925494904543546_CrowdRun_25fps_scaled_0RP_854x480_vs_CrowdRun_25fps_scaled_4RP_854x480_q_854x480"
    }, 
    "frames": [
        {
            "frameNum": 0, 
            "PSNR_score": 37.938679
        }, 
        {
            "frameNum": 1, 
            "PSNR_score": 34.280964
        }, 
        {
            "frameNum": 2, 
            "PSNR_score": 33.979719
        }, 
        {
            "frameNum": 3, 
            "PSNR_score": 34.68961
        }, 
        {
            "frameNum": 4, 
            "PSNR_score": 32.188105
        }, 
        {
            "frameNum": 5, 
            "PSNR_score": 31.475854
        }, 
        {
            "frameNum": 6, 
            "PSNR_score": 30.544746
        }, 
        {
            "frameNum": 7, 
            "PSNR_score": 31.469445
        }, 
        {
            "frameNum": 8, 
            "PSNR_score": 30.230786
        }, 
        {
            "frameNum": 9, 
            "PSNR_score": 30.523929
        }, 
        {
            "frameNum": 10, 
            "PSNR_score": 30.245164
        }, 
        {
            "frameNum": 11, 
            "PSNR_score": 31.064445
        }, 
        {
            "frameNum": 12, 
            "PSNR_score": 30.214061
        }, 
        {
            "frameNum": 13, 
            "PSNR_score": 30.55442
        }, 
        {
            "frameNum": 14, 
            "PSNR_score": 30.208034
        }, 
        {
            "frameNum": 15, 
            "PSNR_score": 31.512427
        }, 
        {
            "frameNum": 16, 
            "PSNR_score": 30.502005
        }, 
        {
            "frameNum": 17, 
            "PSNR_score": 30.954098
        }, 
        {
            "frameNum": 18, 
            "PSNR_score": 30.623655
        }, 
        {
            "frameNum": 19, 
            "PSNR_score": 31.581465
        }, 
        {
            "frameNum": 20, 
            "PSNR_score": 30.612077
        }, 
        {
            "frameNum": 21, 
            "PSNR_score": 30.955846
        }, 
        {
            "frameNum": 22, 
            "PSNR_score": 30.507301
        }, 
        {
            "frameNum": 23, 
            "PSNR_score": 31.798113
        }, 
        {
            "frameNum": 24, 
            "PSNR_score": 30.918273
        }, 
        {
            "frameNum": 25, 
            "PSNR_score": 31.261559
        }, 
        {
            "frameNum": 26, 
            "PSNR_score": 30.944202
        }, 
        {
            "frameNum": 27, 
            "PSNR_score": 31.76484
        }, 
        {
            "frameNum": 28, 
            "PSNR_score": 30.771251
        }, 
        {
            "frameNum": 29, 
            "PSNR_score": 31.145158
        }, 
        {
            "frameNum": 30, 
            "PSNR_score": 30.760853
        }, 
        {
            "frameNum": 31, 
            "PSNR_score": 31.775216
        }, 
        {
            "frameNum": 32, 
            "PSNR_score": 30.76866
        }, 
        {
            "frameNum": 33, 
            "PSNR_score": 31.149479
        }, 
        {
            "frameNum": 34, 
            "PSNR_score": 30.803626
        }, 
        {
            "frameNum": 35, 
            "PSNR_score": 31.598609
        }, 
        {
            "frameNum": 36, 
            "PSNR_score": 30.725314
        }, 
        {
            "frameNum": 37, 
            "PSNR_score": 31.063542
        }, 
        {
            "frameNum": 38, 
            "PSNR_score": 30.743461
        }, 
        {
            "frameNum": 39, 
            "PSNR_score": 31.655893
        }, 
        {
            "frameNum": 40, 
            "PSNR_score": 30.784747
        }, 
        {
            "frameNum": 41, 
            "PSNR_score": 31.105512
        }, 
        {
            "frameNum": 42, 
            "PSNR_score": 30.878322
        }, 
        {
            "frameNum": 43, 
            "PSNR_score": 31.769872
        }, 
        {
            "frameNum": 44, 
            "PSNR_score": 30.838383
        }, 
        {
            "frameNum": 45, 
            "PSNR_score": 31.215495
        }, 
        {
            "frameNum": 46, 
            "PSNR_score": 30.868382
        }, 
        {
            "frameNum": 47, 
            "PSNR_score": 31.795833
        }, 
        {
            "frameNum": 48, 
            "PSNR_score": 30.778706
        }, 
        {
            "frameNum": 49, 
            "PSNR_score": 31.13883
        }, 
        {
            "frameNum": 50, 
            "PSNR_score": 30.765762
        }, 
        {
            "frameNum": 51, 
            "PSNR_score": 31.736301
        }, 
        {
            "frameNum": 52, 
            "PSNR_score": 30.739085
        }, 
        {
            "frameNum": 53, 
            "PSNR_score": 31.182089
        }, 
        {
            "frameNum": 54, 
            "PSNR_score": 30.913302
        }, 
        {
            "frameNum": 55, 
            "PSNR_score": 31.731752
        }, 
        {
            "frameNum": 56, 
            "PSNR_score": 30.820095
        }, 
        {
            "frameNum": 57, 
            "PSNR_score": 31.161796
        }, 
        {
            "frameNum": 58, 
            "PSNR_score": 30.849801
        }, 
        {
            "frameNum": 59, 
            "PSNR_score": 31.852655
        }, 
        {
            "frameNum": 60, 
            "PSNR_score": 30.796209
        }, 
        {
            "frameNum": 61, 
            "PSNR_score": 31.204529
        }, 
        {
            "frameNum": 62, 
            "PSNR_score": 30.879782
        }, 
        {
            "frameNum": 63, 
            "PSNR_score": 31.788859
        }, 
        {
            "frameNum": 64, 
            "PSNR_score": 30.871861
        }, 
        {
            "frameNum": 65, 
            "PSNR_score": 31.300746
        }, 
        {
            "frameNum": 66, 
            "PSNR_score": 30.512653
        }, 
        {
            "frameNum": 67, 
            "PSNR_score": 30.615452
        }, 
        {
            "frameNum": 68, 
            "PSNR_score": 31.932989
        }, 
        {
            "frameNum": 69, 
            "PSNR_score": 31.094526
        }, 
        {
            "frameNum": 70, 
            "PSNR_score": 31.590831
        }, 
        {
            "frameNum": 71, 
            "PSNR_score": 30.645987
        }, 
        {
            "frameNum": 72, 
            "PSNR_score": 30.672337
        }, 
        {
            "frameNum": 73, 
            "PSNR_score": 31.884372
        }, 
        {
            "frameNum": 74, 
            "PSNR_score": 30.932347
        }, 
        {
            "frameNum": 75, 
            "PSNR_score": 31.345376
        }, 
        {
            "frameNum": 76, 
            "PSNR_score": 31.034945
        }, 
        {
            "frameNum": 77, 
            "PSNR_score": 31.89372
        }, 
        {
            "frameNum": 78, 
            "PSNR_score": 30.952181
        }, 
        {
            "frameNum": 79, 
            "PSNR_score": 31.31165
        }, 
        {
            "frameNum": 80, 
            "PSNR_score": 30.989631
        }, 
        {
            "frameNum": 81, 
            "PSNR_score": 31.912235
        }, 
        {
            "frameNum": 82, 
            "PSNR_score": 30.917223
        }, 
        {
            "frameNum": 83, 
            "PSNR_score": 31.262924
        }, 
        {
            "frameNum": 84, 
            "PSNR_score": 30.949302
        }, 
        {
            "frameNum": 85, 
            "PSNR_score": 31.788097
        }, 
        {
            "frameNum": 86, 
            "PSNR_score": 30.922894
        }, 
        {
            "frameNum": 87, 
            "PSNR_score": 31.384594
        }, 
        {
            "frameNum": 88, 
            "PSNR_score": 30.554409
        }, 
        {
            "frameNum": 89, 
            "PSNR_score": 30.562742
        }, 
        {
            "frameNum": 90, 
            "PSNR_score": 31.673364
        }, 
        {
            "frameNum": 91, 
            "PSNR_score": 30.792725
        }, 
        {
            "frameNum": 92, 
            "PSNR_score": 31.118407
        }, 
        {
            "frameNum": 93, 
            "PSNR_score": 30.767348
        }, 
        {
            "frameNum": 94, 
            "PSNR_score": 31.776174
        }, 
        {
            "frameNum": 95, 
            "PSNR_score": 30.945537
        }, 
        {
            "frameNum": 96, 
            "PSNR_score": 31.323262
        }, 
        {
            "frameNum": 97, 
            "PSNR_score": 30.874909
        }, 
        {
            "frameNum": 98, 
            "PSNR_score": 31.732459
        }, 
        {
            "frameNum": 99, 
            "PSNR_score": 30.736745
        }, 
        {
            "frameNum": 100, 
            "PSNR_score": 31.074047
        }, 
        {
            "frameNum": 101, 
            "PSNR_score": 30.71908
        }, 
        {
            "frameNum": 102, 
            "PSNR_score": 31.593046
        }, 
        {
            "frameNum": 103, 
            "PSNR_score": 30.720436
        }, 
        {
            "frameNum": 104, 
            "PSNR_score": 31.019866
        }, 
        {
            "frameNum": 105, 
            "PSNR_score": 30.661189
        }, 
        {
            "frameNum": 106, 
            "PSNR_score": 31.565859
        }, 
        {
            "frameNum": 107, 
            "PSNR_score": 30.676169
        }, 
        {
            "frameNum": 108, 
            "PSNR_score": 31.142513
        }, 
        {
            "frameNum": 109, 
            "PSNR_score": 30.700497
        }, 
        {
            "frameNum": 110, 
            "PSNR_score": 31.647891
        }, 
        {
            "frameNum": 111, 
            "PSNR_score": 30.595846
        }, 
        {
            "frameNum": 112, 
            "PSNR_score": 30.895038
        }, 
        {
            "frameNum": 113, 
            "PSNR_score": 30.498159
        }, 
        {
            "frameNum": 114, 
            "PSNR_score": 31.338892
        }, 
        {
            "frameNum": 115, 
            "PSNR_score": 30.411058
        }, 
        {
            "frameNum": 116, 
            "PSNR_score": 30.830148
        }, 
        {
            "frameNum": 117, 
            "PSNR_score": 30.425346
        }, 
        {
            "frameNum": 118, 
            "PSNR_score": 31.230976
        }, 
        {
            "frameNum": 119, 
            "PSNR_score": 30.455587
        }, 
        {
            "frameNum": 120, 
            "PSNR_score": 30.846313
        }, 
        {
            "frameNum": 121, 
            "PSNR_score": 30.470189
        }, 
        {
            "frameNum": 122, 
            "PSNR_score": 31.404237
        }, 
        {
            "frameNum": 123, 
            "PSNR_score": 30.525192
        }, 
        {
            "frameNum": 124, 
            "PSNR_score": 30.991862
        }, 
        {
            "frameNum": 125, 
            "PSNR_score": 30.670571
        }, 
        {
            "frameNum": 126, 
            "PSNR_score": 31.50191
        }, 
        {
            "frameNum": 127, 
            "PSNR_score": 30.53276
        }, 
        {
            "frameNum": 128, 
            "PSNR_score": 30.81518
        }, 
        {
            "frameNum": 129, 
            "PSNR_score": 30.577833
        }, 
        {
            "frameNum": 130, 
            "PSNR_score": 31.277778
        }, 
        {
            "frameNum": 131, 
            "PSNR_score": 30.439982
        }, 
        {
            "frameNum": 132, 
            "PSNR_score": 30.792642
        }, 
        {
            "frameNum": 133, 
            "PSNR_score": 30.486608
        }, 
        {
            "frameNum": 134, 
            "PSNR_score": 31.554455
        }, 
        {
            "frameNum": 135, 
            "PSNR_score": 30.70463
        }, 
        {
            "frameNum": 136, 
            "PSNR_score": 31.118708
        }, 
        {
            "frameNum": 137, 
            "PSNR_score": 30.764208
        }, 
        {
            "frameNum": 138, 
            "PSNR_score": 31.563607
        }, 
        {
            "frameNum": 139, 
            "PSNR_score": 30.649618
        }, 
        {
            "frameNum": 140, 
            "PSNR_score": 30.891286
        }, 
        {
            "frameNum": 141, 
            "PSNR_score": 30.599255
        }, 
        {
            "frameNum": 142, 
            "PSNR_score": 31.298375
        }, 
        {
            "frameNum": 143, 
            "PSNR_score": 30.597763
        }, 
        {
            "frameNum": 144, 
            "PSNR_score": 30.482181
        }, 
        {
            "frameNum": 145, 
            "PSNR_score": 31.444698
        }, 
        {
            "frameNum": 146, 
            "PSNR_score": 30.553447
        }, 
        {
            "frameNum": 147, 
            "PSNR_score": 30.704855
        }, 
        {
            "frameNum": 148, 
            "PSNR_score": 30.178309
        }, 
        {
            "frameNum": 149, 
            "PSNR_score": 29.897965
        }
    ], 
    "aggregate": {
        "PSNR_score": 31.121439979999995, 
        "method": "mean"
    }
}
