{
    "executorId": "PSNR_V1.0", 
    "asset": {
        "identifier": "cmd_1927916562335411_1927916562335411_colour_boats_30fps_scaled_0RP_cut1_854x480_vs_colour_boats_30fps_scaled_3RP_cut1_854x480_q_854x480"
    }, 
    "frames": [
        {
            "frameNum": 0, 
            "PSNR_score": 33.463095
        }, 
        {
            "frameNum": 1, 
            "PSNR_score": 33.538005
        }, 
        {
            "frameNum": 2, 
            "PSNR_score": 33.950118
        }, 
        {
            "frameNum": 3, 
            "PSNR_score": 34.219728
        }, 
        {
            "frameNum": 4, 
            "PSNR_score": 34.05673
        }, 
        {
            "frameNum": 5, 
            "PSNR_score": 34.375523
        }, 
        {
            "frameNum": 6, 
            "PSNR_score": 34.210497
        }, 
        {
            "frameNum": 7, 
            "PSNR_score": 34.106611
        }, 
        {
            "frameNum": 8, 
            "PSNR_score": 34.100191
        }, 
        {
            "frameNum": 9, 
            "PSNR_score": 34.258146
        }, 
        {
            "frameNum": 10, 
            "PSNR_score": 34.358654
        }, 
        {
            "frameNum": 11, 
            "PSNR_score": 34.553765
        }, 
        {
            "frameNum": 12, 
            "PSNR_score": 34.051322
        }, 
        {
            "frameNum": 13, 
            "PSNR_score": 34.34995
        }, 
        {
            "frameNum": 14, 
            "PSNR_score": 34.483261
        }, 
        {
            "frameNum": 15, 
            "PSNR_score": 34.703961
        }, 
        {
            "frameNum": 16, 
            "PSNR_score": 34.221103
        }, 
        {
            "frameNum": 17, 
            "PSNR_score": 34.254125
        }, 
        {
            "frameNum": 18, 
            "PSNR_score": 34.574213
        }, 
        {
            "frameNum": 19, 
            "PSNR_score": 34.350699
        }, 
        {
            "frameNum": 20, 
            "PSNR_score": 34.227098
        }, 
        {
            "frameNum": 21, 
            "PSNR_score": 34.477249
        }, 
        {
            "frameNum": 22, 
            "PSNR_score": 34.170159
        }, 
        {
            "frameNum": 23, 
            "PSNR_score": 34.751658
        }, 
        {
            "frameNum": 24, 
            "PSNR_score": 34.550485
        }, 
        {
            "frameNum": 25, 
            "PSNR_score": 34.523342
        }, 
        {
            "frameNum": 26, 
            "PSNR_score": 34.523416
        }, 
        {
            "frameNum": 27, 
            "PSNR_score": 34.477151
        }, 
        {
            "frameNum": 28, 
            "PSNR_score": 34.203018
        }, 
        {
            "frameNum": 29, 
            "PSNR_score": 34.557518
        }, 
        {
            "frameNum": 30, 
            "PSNR_score": 34.845467
        }, 
        {
            "frameNum": 31, 
            "PSNR_score": 34.110908
        }, 
        {
            "frameNum": 32, 
            "PSNR_score": 34.458325
        }, 
        {
            "frameNum": 33, 
            "PSNR_score": 34.506971
        }, 
        {
            "frameNum": 34, 
            "PSNR_score": 34.122896
        }, 
        {
            "frameNum": 35, 
            "PSNR_score": 34.541576
        }, 
        {
            "frameNum": 36, 
            "PSNR_score": 34.266143
        }, 
        {
            "frameNum": 37, 
            "PSNR_score": 34.311639
        }, 
        {
            "frameNum": 38, 
            "PSNR_score": 34.29837
        }, 
        {
            "frameNum": 39, 
            "PSNR_score": 34.572135
        }, 
        {
            "frameNum": 40, 
            "PSNR_score": 34.409661
        }, 
        {
            "frameNum": 41, 
            "PSNR_score": 34.209744
        }, 
        {
            "frameNum": 42, 
            "PSNR_score": 34.152476
        }, 
        {
            "frameNum": 43, 
            "PSNR_score": 33.969962
        }, 
        {
            "frameNum": 44, 
            "PSNR_score": 33.607824
        }, 
        {
            "frameNum": 45, 
            "PSNR_score": 33.697319
        }, 
        {
            "frameNum": 46, 
            "PSNR_score": 33.27436
        }, 
        {
            "frameNum": 47, 
            "PSNR_score": 33.244679
        }, 
        {
            "frameNum": 48, 
            "PSNR_score": 32.681077
        }, 
        {
            "frameNum": 49, 
            "PSNR_score": 33.053924
        }, 
        {
            "frameNum": 50, 
            "PSNR_score": 32.542496
        }, 
        {
            "frameNum": 51, 
            "PSNR_score": 32.585442
        }, 
        {
            "frameNum": 52, 
            "PSNR_score": 32.103537
        }, 
        {
            "frameNum": 53, 
            "PSNR_score": 32.538172
        }, 
        {
            "frameNum": 54, 
            "PSNR_score": 31.988174
        }, 
        {
            "frameNum": 55, 
            "PSNR_score": 32.040788
        }, 
        {
            "frameNum": 56, 
            "PSNR_score": 31.560815
        }, 
        {
            "frameNum": 57, 
            "PSNR_score": 32.565605
        }, 
        {
            "frameNum": 58, 
            "PSNR_score": 31.864597
        }, 
        {
            "frameNum": 59, 
            "PSNR_score": 32.121282
        }, 
        {
            "frameNum": 60, 
            "PSNR_score": 31.308031
        }, 
        {
            "frameNum": 61, 
            "PSNR_score": 32.759413
        }, 
        {
            "frameNum": 62, 
            "PSNR_score": 32.021781
        }, 
        {
            "frameNum": 63, 
            "PSNR_score": 32.660092
        }, 
        {
            "frameNum": 64, 
            "PSNR_score": 31.906974
        }, 
        {
            "frameNum": 65, 
            "PSNR_score": 32.921158
        }, 
        {
            "frameNum": 66, 
            "PSNR_score": 34.09731
        }, 
        {
            "frameNum": 67, 
            "PSNR_score": 33.370902
        }, 
        {
            "frameNum": 68, 
            "PSNR_score": 33.014889
        }, 
        {
            "frameNum": 69, 
            "PSNR_score": 34.151386
        }, 
        {
            "frameNum": 70, 
            "PSNR_score": 34.391616
        }, 
        {
            "frameNum": 71, 
            "PSNR_score": 34.265659
        }, 
        {
            "frameNum": 72, 
            "PSNR_score": 33.994222
        }, 
        {
            "frameNum": 73, 
            "PSNR_score": 34.642918
        }, 
        {
            "frameNum": 74, 
            "PSNR_score": 34.959768
        }, 
        {
            "frameNum": 75, 
            "PSNR_score": 34.884081
        }, 
        {
            "frameNum": 76, 
            "PSNR_score": 34.593787
        }, 
        {
            "frameNum": 77, 
            "PSNR_score": 35.098123
        }, 
        {
            "frameNum": 78, 
            "PSNR_score": 35.359373
        }, 
        {
            "frameNum": 79, 
            "PSNR_score": 35.046479
        }, 
        {
            "frameNum": 80, 
            "PSNR_score": 34.876129
        }, 
        {
            "frameNum": 81, 
            "PSNR_score": 35.316834
        }, 
        {
            "frameNum": 82, 
            "PSNR_score": 35.35364
        }, 
        {
            "frameNum": 83, 
            "PSNR_score": 35.597426
        }, 
        {
            "frameNum": 84, 
            "PSNR_score": 35.731555
        }, 
        {
            "frameNum": 85, 
            "PSNR_score": 35.888846
        }, 
        {
            "frameNum": 86, 
            "PSNR_score": 35.806533
        }, 
        {
            "frameNum": 87, 
            "PSNR_score": 35.686631
        }, 
        {
            "frameNum": 88, 
            "PSNR_score": 35.389633
        }, 
        {
            "frameNum": 89, 
            "PSNR_score": 36.163509
        }, 
        {
            "frameNum": 90, 
            "PSNR_score": 36.042686
        }, 
        {
            "frameNum": 91, 
            "PSNR_score": 35.92502
        }, 
        {
            "frameNum": 92, 
            "PSNR_score": 35.572692
        }, 
        {
            "frameNum": 93, 
            "PSNR_score": 36.021724
        }, 
        {
            "frameNum": 94, 
            "PSNR_score": 36.217201
        }, 
        {
            "frameNum": 95, 
            "PSNR_score": 35.773151
        }, 
        {
            "frameNum": 96, 
            "PSNR_score": 35.673773
        }, 
        {
            "frameNum": 97, 
            "PSNR_score": 36.218235
        }, 
        {
            "frameNum": 98, 
            "PSNR_score": 36.154168
        }, 
        {
            "frameNum": 99, 
            "PSNR_score": 36.140924
        }, 
        {
            "frameNum": 100, 
            "PSNR_score": 36.204645
        }, 
        {
            "frameNum": 101, 
            "PSNR_score": 36.471939
        }, 
        {
            "frameNum": 102, 
            "PSNR_score": 36.313201
        }, 
        {
            "frameNum": 103, 
            "PSNR_score": 36.062365
        }, 
        {
            "frameNum": 104, 
            "PSNR_score": 35.831984
        }, 
        {
            "frameNum": 105, 
            "PSNR_score": 36.526118
        }, 
        {
            "frameNum": 106, 
            "PSNR_score": 36.396309
        }, 
        {
            "frameNum": 107, 
            "PSNR_score": 36.249057
        }, 
        {
            "frameNum": 108, 
            "PSNR_score": 36.24052
        }, 
        {
            "frameNum": 109, 
            "PSNR_score": 36.432989
        }, 
        {
            "frameNum": 110, 
            "PSNR_score": 36.496721
        }, 
        {
            "frameNum": 111, 
            "PSNR_score": 36.404573
        }, 
        {
            "frameNum": 112, 
            "PSNR_score": 36.432869
        }, 
        {
            "frameNum": 113, 
            "PSNR_score": 36.696909
        }, 
        {
            "frameNum": 114, 
            "PSNR_score": 36.972095
        }, 
        {
            "frameNum": 115, 
            "PSNR_score": 36.634025
        }, 
        {
            "frameNum": 116, 
            "PSNR_score": 36.379597
        }, 
        {
            "frameNum": 117, 
            "PSNR_score": 36.851858
        }, 
        {
            "frameNum": 118, 
            "PSNR_score": 36.735353
        }, 
        {
            "frameNum": 119, 
            "PSNR_score": 36.743851
        }, 
        {
            "frameNum": 120, 
            "PSNR_score": 36.564942
        }, 
        {
            "frameNum": 121, 
            "PSNR_score": 36.930559
        }, 
        {
            "frameNum": 122, 
            "PSNR_score": 36.775214
        }, 
        {
            "frameNum": 123, 
            "PSNR_score": 36.478241
        }, 
        {
            "frameNum": 124, 
            "PSNR_score": 36.221848
        }, 
        {
            "frameNum": 125, 
            "PSNR_score": 36.723948
        }, 
        {
            "frameNum": 126, 
            "PSNR_score": 36.337896
        }, 
        {
            "frameNum": 127, 
            "PSNR_score": 36.532902
        }, 
        {
            "frameNum": 128, 
            "PSNR_score": 36.306605
        }, 
        {
            "frameNum": 129, 
            "PSNR_score": 36.579077
        }, 
        {
            "frameNum": 130, 
            "PSNR_score": 36.581659
        }, 
        {
            "frameNum": 131, 
            "PSNR_score": 36.389335
        }, 
        {
            "frameNum": 132, 
            "PSNR_score": 36.380502
        }, 
        {
            "frameNum": 133, 
            "PSNR_score": 36.678157
        }, 
        {
            "frameNum": 134, 
            "PSNR_score": 36.759174
        }, 
        {
            "frameNum": 135, 
            "PSNR_score": 36.391075
        }, 
        {
            "frameNum": 136, 
            "PSNR_score": 36.159626
        }, 
        {
            "frameNum": 137, 
            "PSNR_score": 36.688815
        }, 
        {
            "frameNum": 138, 
            "PSNR_score": 36.565768
        }, 
        {
            "frameNum": 139, 
            "PSNR_score": 36.403565
        }, 
        {
            "frameNum": 140, 
            "PSNR_score": 36.386897
        }, 
        {
            "frameNum": 141, 
            "PSNR_score": 36.535857
        }, 
        {
            "frameNum": 142, 
            "PSNR_score": 36.445699
        }, 
        {
            "frameNum": 143, 
            "PSNR_score": 36.784161
        }, 
        {
            "frameNum": 144, 
            "PSNR_score": 36.274562
        }, 
        {
            "frameNum": 145, 
            "PSNR_score": 36.889101
        }, 
        {
            "frameNum": 146, 
            "PSNR_score": 36.850119
        }, 
        {
            "frameNum": 147, 
            "PSNR_score": 36.389112
        }, 
        {
            "frameNum": 148, 
            "PSNR_score": 36.333624
        }, 
        {
            "frameNum": 149, 
            "PSNR_score": 36.877491
        }, 
        {
            "frameNum": 150, 
            "PSNR_score": 36.777374
        }, 
        {
            "frameNum": 151, 
            "PSNR_score": 36.593788
        }, 
        {
            "frameNum": 152, 
            "PSNR_score": 36.328457
        }, 
        {
            "frameNum": 153, 
            "PSNR_score": 36.787977
        }, 
        {
            "frameNum": 154, 
            "PSNR_score": 36.5121
        }, 
        {
            "frameNum": 155, 
            "PSNR_score": 36.558024
        }, 
        {
            "frameNum": 156, 
            "PSNR_score": 36.369667
        }, 
        {
            "frameNum": 157, 
            "PSNR_score": 36.420649
        }, 
        {
            "frameNum": 158, 
            "PSNR_score": 36.394143
        }, 
        {
            "frameNum": 159, 
            "PSNR_score": 36.53823
        }, 
        {
            "frameNum": 160, 
            "PSNR_score": 36.347037
        }, 
        {
            "frameNum": 161, 
            "PSNR_score": 36.410566
        }, 
        {
            "frameNum": 162, 
            "PSNR_score": 36.713564
        }, 
        {
            "frameNum": 163, 
            "PSNR_score": 36.543687
        }, 
        {
            "frameNum": 164, 
            "PSNR_score": 36.396901
        }, 
        {
            "frameNum": 165, 
            "PSNR_score": 36.48934
        }, 
        {
            "frameNum": 166, 
            "PSNR_score": 36.281338
        }, 
        {
            "frameNum": 167, 
            "PSNR_score": 36.117788
        }, 
        {
            "frameNum": 168, 
            "PSNR_score": 35.856269
        }, 
        {
            "frameNum": 169, 
            "PSNR_score": 36.367905
        }, 
        {
            "frameNum": 170, 
            "PSNR_score": 36.458523
        }, 
        {
            "frameNum": 171, 
            "PSNR_score": 36.357898
        }, 
        {
            "frameNum": 172, 
            "PSNR_score": 35.957358
        }, 
        {
            "frameNum": 173, 
            "PSNR_score": 36.256571
        }, 
        {
            "frameNum": 174, 
            "PSNR_score": 35.941017
        }, 
        {
            "frameNum": 175, 
            "PSNR_score": 36.02575
        }, 
        {
            "frameNum": 176, 
            "PSNR_score": 35.851765
        }, 
        {
            "frameNum": 177, 
            "PSNR_score": 35.993119
        }, 
        {
            "frameNum": 178, 
            "PSNR_score": 35.795029
        }, 
        {
            "frameNum": 179, 
            "PSNR_score": 35.02294
        }
    ], 
    "aggregate": {
        "PSNR_score": 35.19801505555556, 
        "method": "mean"
    }
}
