{
    "executorId": "PSNR_V1.0", 
    "asset": {
        "identifier": "cmd_5501101133499512_5501101133499512_cow_30fps_scaled_0RP_854x480_vs_cow_30fps_scaled_3RP_854x480_q_854x480"
    }, 
    "frames": [
        {
            "frameNum": 0, 
            "PSNR_score": 37.319065
        }, 
        {
            "frameNum": 1, 
            "PSNR_score": 37.078134
        }, 
        {
            "frameNum": 2, 
            "PSNR_score": 37.289965
        }, 
        {
            "frameNum": 3, 
            "PSNR_score": 37.411229
        }, 
        {
            "frameNum": 4, 
            "PSNR_score": 38.099478
        }, 
        {
            "frameNum": 5, 
            "PSNR_score": 37.767999
        }, 
        {
            "frameNum": 6, 
            "PSNR_score": 38.211259
        }, 
        {
            "frameNum": 7, 
            "PSNR_score": 38.38477
        }, 
        {
            "frameNum": 8, 
            "PSNR_score": 39.384913
        }, 
        {
            "frameNum": 9, 
            "PSNR_score": 39.498353
        }, 
        {
            "frameNum": 10, 
            "PSNR_score": 39.743013
        }, 
        {
            "frameNum": 11, 
            "PSNR_score": 40.052684
        }, 
        {
            "frameNum": 12, 
            "PSNR_score": 40.818068
        }, 
        {
            "frameNum": 13, 
            "PSNR_score": 40.995743
        }, 
        {
            "frameNum": 14, 
            "PSNR_score": 40.84978
        }, 
        {
            "frameNum": 15, 
            "PSNR_score": 42.163084
        }, 
        {
            "frameNum": 16, 
            "PSNR_score": 41.593883
        }, 
        {
            "frameNum": 17, 
            "PSNR_score": 42.251377
        }, 
        {
            "frameNum": 18, 
            "PSNR_score": 41.805077
        }, 
        {
            "frameNum": 19, 
            "PSNR_score": 43.398741
        }, 
        {
            "frameNum": 20, 
            "PSNR_score": 43.389127
        }, 
        {
            "frameNum": 21, 
            "PSNR_score": 43.75962
        }, 
        {
            "frameNum": 22, 
            "PSNR_score": 43.086988
        }, 
        {
            "frameNum": 23, 
            "PSNR_score": 43.882084
        }, 
        {
            "frameNum": 24, 
            "PSNR_score": 43.02048
        }, 
        {
            "frameNum": 25, 
            "PSNR_score": 43.176554
        }, 
        {
            "frameNum": 26, 
            "PSNR_score": 42.629284
        }, 
        {
            "frameNum": 27, 
            "PSNR_score": 43.463569
        }, 
        {
            "frameNum": 28, 
            "PSNR_score": 42.479663
        }, 
        {
            "frameNum": 29, 
            "PSNR_score": 42.98935
        }, 
        {
            "frameNum": 30, 
            "PSNR_score": 42.458794
        }, 
        {
            "frameNum": 31, 
            "PSNR_score": 43.451295
        }, 
        {
            "frameNum": 32, 
            "PSNR_score": 42.179909
        }, 
        {
            "frameNum": 33, 
            "PSNR_score": 42.60366
        }, 
        {
            "frameNum": 34, 
            "PSNR_score": 41.569203
        }, 
        {
            "frameNum": 35, 
            "PSNR_score": 42.384802
        }, 
        {
            "frameNum": 36, 
            "PSNR_score": 40.996354
        }, 
        {
            "frameNum": 37, 
            "PSNR_score": 41.428168
        }, 
        {
            "frameNum": 38, 
            "PSNR_score": 40.552843
        }, 
        {
            "frameNum": 39, 
            "PSNR_score": 41.486926
        }, 
        {
            "frameNum": 40, 
            "PSNR_score": 40.192085
        }, 
        {
            "frameNum": 41, 
            "PSNR_score": 40.721194
        }, 
        {
            "frameNum": 42, 
            "PSNR_score": 40.057499
        }, 
        {
            "frameNum": 43, 
            "PSNR_score": 40.76973
        }, 
        {
            "frameNum": 44, 
            "PSNR_score": 39.597767
        }, 
        {
            "frameNum": 45, 
            "PSNR_score": 40.207548
        }, 
        {
            "frameNum": 46, 
            "PSNR_score": 39.635885
        }, 
        {
            "frameNum": 47, 
            "PSNR_score": 40.216172
        }, 
        {
            "frameNum": 48, 
            "PSNR_score": 38.782662
        }, 
        {
            "frameNum": 49, 
            "PSNR_score": 39.333795
        }, 
        {
            "frameNum": 50, 
            "PSNR_score": 38.752918
        }, 
        {
            "frameNum": 51, 
            "PSNR_score": 39.341265
        }, 
        {
            "frameNum": 52, 
            "PSNR_score": 37.91597
        }, 
        {
            "frameNum": 53, 
            "PSNR_score": 38.421038
        }, 
        {
            "frameNum": 54, 
            "PSNR_score": 38.004462
        }, 
        {
            "frameNum": 55, 
            "PSNR_score": 38.142814
        }, 
        {
            "frameNum": 56, 
            "PSNR_score": 37.101677
        }, 
        {
            "frameNum": 57, 
            "PSNR_score": 37.787037
        }, 
        {
            "frameNum": 58, 
            "PSNR_score": 37.04413
        }, 
        {
            "frameNum": 59, 
            "PSNR_score": 37.771437
        }, 
        {
            "frameNum": 60, 
            "PSNR_score": 36.783211
        }, 
        {
            "frameNum": 61, 
            "PSNR_score": 37.585078
        }, 
        {
            "frameNum": 62, 
            "PSNR_score": 37.104882
        }, 
        {
            "frameNum": 63, 
            "PSNR_score": 37.856788
        }, 
        {
            "frameNum": 64, 
            "PSNR_score": 37.041264
        }, 
        {
            "frameNum": 65, 
            "PSNR_score": 37.964376
        }, 
        {
            "frameNum": 66, 
            "PSNR_score": 37.150211
        }, 
        {
            "frameNum": 67, 
            "PSNR_score": 38.163777
        }, 
        {
            "frameNum": 68, 
            "PSNR_score": 37.576408
        }, 
        {
            "frameNum": 69, 
            "PSNR_score": 38.270108
        }, 
        {
            "frameNum": 70, 
            "PSNR_score": 38.298496
        }, 
        {
            "frameNum": 71, 
            "PSNR_score": 38.635812
        }, 
        {
            "frameNum": 72, 
            "PSNR_score": 38.30698
        }, 
        {
            "frameNum": 73, 
            "PSNR_score": 39.010772
        }, 
        {
            "frameNum": 74, 
            "PSNR_score": 39.340198
        }, 
        {
            "frameNum": 75, 
            "PSNR_score": 39.05899
        }, 
        {
            "frameNum": 76, 
            "PSNR_score": 38.559757
        }, 
        {
            "frameNum": 77, 
            "PSNR_score": 39.540333
        }, 
        {
            "frameNum": 78, 
            "PSNR_score": 39.022529
        }, 
        {
            "frameNum": 79, 
            "PSNR_score": 39.704844
        }, 
        {
            "frameNum": 80, 
            "PSNR_score": 40.273441
        }, 
        {
            "frameNum": 81, 
            "PSNR_score": 40.490963
        }, 
        {
            "frameNum": 82, 
            "PSNR_score": 40.333509
        }, 
        {
            "frameNum": 83, 
            "PSNR_score": 40.750617
        }, 
        {
            "frameNum": 84, 
            "PSNR_score": 40.612981
        }, 
        {
            "frameNum": 85, 
            "PSNR_score": 40.899135
        }, 
        {
            "frameNum": 86, 
            "PSNR_score": 41.050453
        }, 
        {
            "frameNum": 87, 
            "PSNR_score": 41.424527
        }, 
        {
            "frameNum": 88, 
            "PSNR_score": 41.298332
        }, 
        {
            "frameNum": 89, 
            "PSNR_score": 41.519262
        }, 
        {
            "frameNum": 90, 
            "PSNR_score": 41.358997
        }, 
        {
            "frameNum": 91, 
            "PSNR_score": 41.622542
        }, 
        {
            "frameNum": 92, 
            "PSNR_score": 41.558399
        }, 
        {
            "frameNum": 93, 
            "PSNR_score": 41.478012
        }, 
        {
            "frameNum": 94, 
            "PSNR_score": 40.951318
        }, 
        {
            "frameNum": 95, 
            "PSNR_score": 41.115679
        }, 
        {
            "frameNum": 96, 
            "PSNR_score": 40.729554
        }, 
        {
            "frameNum": 97, 
            "PSNR_score": 40.550853
        }, 
        {
            "frameNum": 98, 
            "PSNR_score": 39.907073
        }, 
        {
            "frameNum": 99, 
            "PSNR_score": 40.129438
        }, 
        {
            "frameNum": 100, 
            "PSNR_score": 39.677434
        }, 
        {
            "frameNum": 101, 
            "PSNR_score": 39.664291
        }, 
        {
            "frameNum": 102, 
            "PSNR_score": 39.377302
        }, 
        {
            "frameNum": 103, 
            "PSNR_score": 39.192506
        }, 
        {
            "frameNum": 104, 
            "PSNR_score": 38.686898
        }, 
        {
            "frameNum": 105, 
            "PSNR_score": 38.728875
        }, 
        {
            "frameNum": 106, 
            "PSNR_score": 38.63215
        }, 
        {
            "frameNum": 107, 
            "PSNR_score": 38.662939
        }, 
        {
            "frameNum": 108, 
            "PSNR_score": 38.212564
        }, 
        {
            "frameNum": 109, 
            "PSNR_score": 38.661936
        }, 
        {
            "frameNum": 110, 
            "PSNR_score": 38.270963
        }, 
        {
            "frameNum": 111, 
            "PSNR_score": 38.479527
        }, 
        {
            "frameNum": 112, 
            "PSNR_score": 38.046822
        }, 
        {
            "frameNum": 113, 
            "PSNR_score": 38.360422
        }, 
        {
            "frameNum": 114, 
            "PSNR_score": 38.243979
        }, 
        {
            "frameNum": 115, 
            "PSNR_score": 38.066109
        }, 
        {
            "frameNum": 116, 
            "PSNR_score": 37.997777
        }, 
        {
            "frameNum": 117, 
            "PSNR_score": 38.279218
        }, 
        {
            "frameNum": 118, 
            "PSNR_score": 38.29518
        }, 
        {
            "frameNum": 119, 
            "PSNR_score": 37.95944
        }, 
        {
            "frameNum": 120, 
            "PSNR_score": 38.02749
        }, 
        {
            "frameNum": 121, 
            "PSNR_score": 38.251537
        }, 
        {
            "frameNum": 122, 
            "PSNR_score": 37.969122
        }, 
        {
            "frameNum": 123, 
            "PSNR_score": 37.768207
        }, 
        {
            "frameNum": 124, 
            "PSNR_score": 37.172202
        }, 
        {
            "frameNum": 125, 
            "PSNR_score": 37.805678
        }, 
        {
            "frameNum": 126, 
            "PSNR_score": 37.541314
        }, 
        {
            "frameNum": 127, 
            "PSNR_score": 37.869149
        }, 
        {
            "frameNum": 128, 
            "PSNR_score": 37.070803
        }, 
        {
            "frameNum": 129, 
            "PSNR_score": 37.089141
        }, 
        {
            "frameNum": 130, 
            "PSNR_score": 38.955777
        }, 
        {
            "frameNum": 131, 
            "PSNR_score": 37.257136
        }, 
        {
            "frameNum": 132, 
            "PSNR_score": 36.910439
        }, 
        {
            "frameNum": 133, 
            "PSNR_score": 36.746034
        }, 
        {
            "frameNum": 134, 
            "PSNR_score": 36.85995
        }, 
        {
            "frameNum": 135, 
            "PSNR_score": 36.646422
        }, 
        {
            "frameNum": 136, 
            "PSNR_score": 36.395234
        }, 
        {
            "frameNum": 137, 
            "PSNR_score": 36.495571
        }, 
        {
            "frameNum": 138, 
            "PSNR_score": 36.489286
        }, 
        {
            "frameNum": 139, 
            "PSNR_score": 36.445305
        }, 
        {
            "frameNum": 140, 
            "PSNR_score": 35.984624
        }, 
        {
            "frameNum": 141, 
            "PSNR_score": 35.608519
        }, 
        {
            "frameNum": 142, 
            "PSNR_score": 35.051519
        }, 
        {
            "frameNum": 143, 
            "PSNR_score": 35.93938
        }, 
        {
            "frameNum": 144, 
            "PSNR_score": 35.254131
        }, 
        {
            "frameNum": 145, 
            "PSNR_score": 35.610878
        }, 
        {
            "frameNum": 146, 
            "PSNR_score": 34.777045
        }, 
        {
            "frameNum": 147, 
            "PSNR_score": 35.753028
        }, 
        {
            "frameNum": 148, 
            "PSNR_score": 35.085511
        }, 
        {
            "frameNum": 149, 
            "PSNR_score": 35.521655
        }, 
        {
            "frameNum": 150, 
            "PSNR_score": 34.736628
        }, 
        {
            "frameNum": 151, 
            "PSNR_score": 35.669111
        }, 
        {
            "frameNum": 152, 
            "PSNR_score": 35.068209
        }, 
        {
            "frameNum": 153, 
            "PSNR_score": 35.464898
        }, 
        {
            "frameNum": 154, 
            "PSNR_score": 34.706612
        }, 
        {
            "frameNum": 155, 
            "PSNR_score": 35.739007
        }, 
        {
            "frameNum": 156, 
            "PSNR_score": 35.005418
        }, 
        {
            "frameNum": 157, 
            "PSNR_score": 35.454447
        }, 
        {
            "frameNum": 158, 
            "PSNR_score": 34.671566
        }, 
        {
            "frameNum": 159, 
            "PSNR_score": 35.731721
        }, 
        {
            "frameNum": 160, 
            "PSNR_score": 35.156946
        }, 
        {
            "frameNum": 161, 
            "PSNR_score": 35.566936
        }, 
        {
            "frameNum": 162, 
            "PSNR_score": 35.552139
        }, 
        {
            "frameNum": 163, 
            "PSNR_score": 35.697703
        }, 
        {
            "frameNum": 164, 
            "PSNR_score": 35.4926
        }, 
        {
            "frameNum": 165, 
            "PSNR_score": 35.667635
        }, 
        {
            "frameNum": 166, 
            "PSNR_score": 35.492298
        }, 
        {
            "frameNum": 167, 
            "PSNR_score": 35.72615
        }, 
        {
            "frameNum": 168, 
            "PSNR_score": 35.404073
        }, 
        {
            "frameNum": 169, 
            "PSNR_score": 35.673622
        }, 
        {
            "frameNum": 170, 
            "PSNR_score": 35.435348
        }, 
        {
            "frameNum": 171, 
            "PSNR_score": 35.812487
        }, 
        {
            "frameNum": 172, 
            "PSNR_score": 35.379145
        }, 
        {
            "frameNum": 173, 
            "PSNR_score": 35.60851
        }, 
        {
            "frameNum": 174, 
            "PSNR_score": 35.313576
        }, 
        {
            "frameNum": 175, 
            "PSNR_score": 35.80893
        }, 
        {
            "frameNum": 176, 
            "PSNR_score": 35.317483
        }, 
        {
            "frameNum": 177, 
            "PSNR_score": 35.534627
        }, 
        {
            "frameNum": 178, 
            "PSNR_score": 35.10669
        }, 
        {
            "frameNum": 179, 
            "PSNR_score": 34.452345
        }
    ], 
    "aggregate": {
        "PSNR_score": 38.56237528333333, 
        "method": "mean"
    }
}
