{
    "executorId": "SSIM_V1.0", 
    "asset": {
        "identifier": "cmd_7925494904543546_7925494904543546_CrowdRun_25fps_scaled_0RP_854x480_vs_CrowdRun_25fps_scaled_2RP_854x480_q_854x480"
    }, 
    "frames": [
        {
            "frameNum": 0, 
            "SSIM_feature_ssim_c_score": 0.9983, 
            "SSIM_feature_ssim_l_score": 0.999899, 
            "SSIM_feature_ssim_s_score": 0.967689, 
            "SSIM_score": 0.965971
        }, 
        {
            "frameNum": 1, 
            "SSIM_feature_ssim_c_score": 0.997404, 
            "SSIM_feature_ssim_l_score": 0.999769, 
            "SSIM_feature_ssim_s_score": 0.954194, 
            "SSIM_score": 0.951584
        }, 
        {
            "frameNum": 2, 
            "SSIM_feature_ssim_c_score": 0.997092, 
            "SSIM_feature_ssim_l_score": 0.999708, 
            "SSIM_feature_ssim_s_score": 0.946393, 
            "SSIM_score": 0.943466
        }, 
        {
            "frameNum": 3, 
            "SSIM_feature_ssim_c_score": 0.997391, 
            "SSIM_feature_ssim_l_score": 0.999755, 
            "SSIM_feature_ssim_s_score": 0.947265, 
            "SSIM_score": 0.944632
        }, 
        {
            "frameNum": 4, 
            "SSIM_feature_ssim_c_score": 0.996218, 
            "SSIM_feature_ssim_l_score": 0.999585, 
            "SSIM_feature_ssim_s_score": 0.933066, 
            "SSIM_score": 0.929339
        }, 
        {
            "frameNum": 5, 
            "SSIM_feature_ssim_c_score": 0.996011, 
            "SSIM_feature_ssim_l_score": 0.999488, 
            "SSIM_feature_ssim_s_score": 0.92251, 
            "SSIM_score": 0.918578
        }, 
        {
            "frameNum": 6, 
            "SSIM_feature_ssim_c_score": 0.994186, 
            "SSIM_feature_ssim_l_score": 0.999344, 
            "SSIM_feature_ssim_s_score": 0.909504, 
            "SSIM_score": 0.904084
        }, 
        {
            "frameNum": 7, 
            "SSIM_feature_ssim_c_score": 0.995578, 
            "SSIM_feature_ssim_l_score": 0.999537, 
            "SSIM_feature_ssim_s_score": 0.920787, 
            "SSIM_score": 0.916495
        }, 
        {
            "frameNum": 8, 
            "SSIM_feature_ssim_c_score": 0.993542, 
            "SSIM_feature_ssim_l_score": 0.999269, 
            "SSIM_feature_ssim_s_score": 0.901013, 
            "SSIM_score": 0.895074
        }, 
        {
            "frameNum": 9, 
            "SSIM_feature_ssim_c_score": 0.994359, 
            "SSIM_feature_ssim_l_score": 0.999374, 
            "SSIM_feature_ssim_s_score": 0.905124, 
            "SSIM_score": 0.899852
        }, 
        {
            "frameNum": 10, 
            "SSIM_feature_ssim_c_score": 0.993265, 
            "SSIM_feature_ssim_l_score": 0.999231, 
            "SSIM_feature_ssim_s_score": 0.899115, 
            "SSIM_score": 0.893032
        }, 
        {
            "frameNum": 11, 
            "SSIM_feature_ssim_c_score": 0.995236, 
            "SSIM_feature_ssim_l_score": 0.999508, 
            "SSIM_feature_ssim_s_score": 0.915242, 
            "SSIM_score": 0.910727
        }, 
        {
            "frameNum": 12, 
            "SSIM_feature_ssim_c_score": 0.992977, 
            "SSIM_feature_ssim_l_score": 0.999288, 
            "SSIM_feature_ssim_s_score": 0.899379, 
            "SSIM_score": 0.893209
        }, 
        {
            "frameNum": 13, 
            "SSIM_feature_ssim_c_score": 0.993821, 
            "SSIM_feature_ssim_l_score": 0.999388, 
            "SSIM_feature_ssim_s_score": 0.904542, 
            "SSIM_score": 0.898944
        }, 
        {
            "frameNum": 14, 
            "SSIM_feature_ssim_c_score": 0.993212, 
            "SSIM_feature_ssim_l_score": 0.999298, 
            "SSIM_feature_ssim_s_score": 0.899918, 
            "SSIM_score": 0.89379
        }, 
        {
            "frameNum": 15, 
            "SSIM_feature_ssim_c_score": 0.994904, 
            "SSIM_feature_ssim_l_score": 0.999523, 
            "SSIM_feature_ssim_s_score": 0.913246, 
            "SSIM_score": 0.908491
        }, 
        {
            "frameNum": 16, 
            "SSIM_feature_ssim_c_score": 0.992498, 
            "SSIM_feature_ssim_l_score": 0.999225, 
            "SSIM_feature_ssim_s_score": 0.896291, 
            "SSIM_score": 0.889634
        }, 
        {
            "frameNum": 17, 
            "SSIM_feature_ssim_c_score": 0.993863, 
            "SSIM_feature_ssim_l_score": 0.999401, 
            "SSIM_feature_ssim_s_score": 0.90437, 
            "SSIM_score": 0.898821
        }, 
        {
            "frameNum": 18, 
            "SSIM_feature_ssim_c_score": 0.992694, 
            "SSIM_feature_ssim_l_score": 0.999288, 
            "SSIM_feature_ssim_s_score": 0.899556, 
            "SSIM_score": 0.893119
        }, 
        {
            "frameNum": 19, 
            "SSIM_feature_ssim_c_score": 0.995359, 
            "SSIM_feature_ssim_l_score": 0.999586, 
            "SSIM_feature_ssim_s_score": 0.919045, 
            "SSIM_score": 0.914702
        }, 
        {
            "frameNum": 20, 
            "SSIM_feature_ssim_c_score": 0.99356, 
            "SSIM_feature_ssim_l_score": 0.999401, 
            "SSIM_feature_ssim_s_score": 0.907477, 
            "SSIM_score": 0.901614
        }, 
        {
            "frameNum": 21, 
            "SSIM_feature_ssim_c_score": 0.994627, 
            "SSIM_feature_ssim_l_score": 0.999467, 
            "SSIM_feature_ssim_s_score": 0.912475, 
            "SSIM_score": 0.90741
        }, 
        {
            "frameNum": 22, 
            "SSIM_feature_ssim_c_score": 0.99378, 
            "SSIM_feature_ssim_l_score": 0.999361, 
            "SSIM_feature_ssim_s_score": 0.906225, 
            "SSIM_score": 0.900492
        }, 
        {
            "frameNum": 23, 
            "SSIM_feature_ssim_c_score": 0.99515, 
            "SSIM_feature_ssim_l_score": 0.999547, 
            "SSIM_feature_ssim_s_score": 0.920435, 
            "SSIM_score": 0.915857
        }, 
        {
            "frameNum": 24, 
            "SSIM_feature_ssim_c_score": 0.992996, 
            "SSIM_feature_ssim_l_score": 0.99935, 
            "SSIM_feature_ssim_s_score": 0.906289, 
            "SSIM_score": 0.899989
        }, 
        {
            "frameNum": 25, 
            "SSIM_feature_ssim_c_score": 0.994561, 
            "SSIM_feature_ssim_l_score": 0.999484, 
            "SSIM_feature_ssim_s_score": 0.91092, 
            "SSIM_score": 0.905859
        }, 
        {
            "frameNum": 26, 
            "SSIM_feature_ssim_c_score": 0.99374, 
            "SSIM_feature_ssim_l_score": 0.999389, 
            "SSIM_feature_ssim_s_score": 0.90704, 
            "SSIM_score": 0.901273
        }, 
        {
            "frameNum": 27, 
            "SSIM_feature_ssim_c_score": 0.995262, 
            "SSIM_feature_ssim_l_score": 0.999597, 
            "SSIM_feature_ssim_s_score": 0.920037, 
            "SSIM_score": 0.91559
        }, 
        {
            "frameNum": 28, 
            "SSIM_feature_ssim_c_score": 0.993544, 
            "SSIM_feature_ssim_l_score": 0.999416, 
            "SSIM_feature_ssim_s_score": 0.907733, 
            "SSIM_score": 0.901803
        }, 
        {
            "frameNum": 29, 
            "SSIM_feature_ssim_c_score": 0.994459, 
            "SSIM_feature_ssim_l_score": 0.99951, 
            "SSIM_feature_ssim_s_score": 0.912354, 
            "SSIM_score": 0.907245
        }, 
        {
            "frameNum": 30, 
            "SSIM_feature_ssim_c_score": 0.993643, 
            "SSIM_feature_ssim_l_score": 0.999403, 
            "SSIM_feature_ssim_s_score": 0.906083, 
            "SSIM_score": 0.900258
        }, 
        {
            "frameNum": 31, 
            "SSIM_feature_ssim_c_score": 0.995099, 
            "SSIM_feature_ssim_l_score": 0.999618, 
            "SSIM_feature_ssim_s_score": 0.919867, 
            "SSIM_score": 0.915303
        }, 
        {
            "frameNum": 32, 
            "SSIM_feature_ssim_c_score": 0.993326, 
            "SSIM_feature_ssim_l_score": 0.999437, 
            "SSIM_feature_ssim_s_score": 0.906291, 
            "SSIM_score": 0.90022
        }, 
        {
            "frameNum": 33, 
            "SSIM_feature_ssim_c_score": 0.994553, 
            "SSIM_feature_ssim_l_score": 0.999501, 
            "SSIM_feature_ssim_s_score": 0.910484, 
            "SSIM_score": 0.905466
        }, 
        {
            "frameNum": 34, 
            "SSIM_feature_ssim_c_score": 0.99351, 
            "SSIM_feature_ssim_l_score": 0.999396, 
            "SSIM_feature_ssim_s_score": 0.905121, 
            "SSIM_score": 0.899239
        }, 
        {
            "frameNum": 35, 
            "SSIM_feature_ssim_c_score": 0.994744, 
            "SSIM_feature_ssim_l_score": 0.999596, 
            "SSIM_feature_ssim_s_score": 0.918159, 
            "SSIM_score": 0.913315
        }, 
        {
            "frameNum": 36, 
            "SSIM_feature_ssim_c_score": 0.99323, 
            "SSIM_feature_ssim_l_score": 0.999404, 
            "SSIM_feature_ssim_s_score": 0.90635, 
            "SSIM_score": 0.900197
        }, 
        {
            "frameNum": 37, 
            "SSIM_feature_ssim_c_score": 0.994269, 
            "SSIM_feature_ssim_l_score": 0.999548, 
            "SSIM_feature_ssim_s_score": 0.912831, 
            "SSIM_score": 0.907574
        }, 
        {
            "frameNum": 38, 
            "SSIM_feature_ssim_c_score": 0.993452, 
            "SSIM_feature_ssim_l_score": 0.999402, 
            "SSIM_feature_ssim_s_score": 0.906084, 
            "SSIM_score": 0.900111
        }, 
        {
            "frameNum": 39, 
            "SSIM_feature_ssim_c_score": 0.994358, 
            "SSIM_feature_ssim_l_score": 0.999592, 
            "SSIM_feature_ssim_s_score": 0.917396, 
            "SSIM_score": 0.912288
        }, 
        {
            "frameNum": 40, 
            "SSIM_feature_ssim_c_score": 0.993188, 
            "SSIM_feature_ssim_l_score": 0.9994, 
            "SSIM_feature_ssim_s_score": 0.9068, 
            "SSIM_score": 0.900606
        }, 
        {
            "frameNum": 41, 
            "SSIM_feature_ssim_c_score": 0.994162, 
            "SSIM_feature_ssim_l_score": 0.99949, 
            "SSIM_feature_ssim_s_score": 0.910704, 
            "SSIM_score": 0.905325
        }, 
        {
            "frameNum": 42, 
            "SSIM_feature_ssim_c_score": 0.993149, 
            "SSIM_feature_ssim_l_score": 0.999409, 
            "SSIM_feature_ssim_s_score": 0.905821, 
            "SSIM_score": 0.899627
        }, 
        {
            "frameNum": 43, 
            "SSIM_feature_ssim_c_score": 0.994921, 
            "SSIM_feature_ssim_l_score": 0.999601, 
            "SSIM_feature_ssim_s_score": 0.918527, 
            "SSIM_score": 0.913822
        }, 
        {
            "frameNum": 44, 
            "SSIM_feature_ssim_c_score": 0.993042, 
            "SSIM_feature_ssim_l_score": 0.999405, 
            "SSIM_feature_ssim_s_score": 0.904713, 
            "SSIM_score": 0.898408
        }, 
        {
            "frameNum": 45, 
            "SSIM_feature_ssim_c_score": 0.994216, 
            "SSIM_feature_ssim_l_score": 0.999509, 
            "SSIM_feature_ssim_s_score": 0.910626, 
            "SSIM_score": 0.90535
        }, 
        {
            "frameNum": 46, 
            "SSIM_feature_ssim_c_score": 0.993396, 
            "SSIM_feature_ssim_l_score": 0.99945, 
            "SSIM_feature_ssim_s_score": 0.906308, 
            "SSIM_score": 0.900332
        }, 
        {
            "frameNum": 47, 
            "SSIM_feature_ssim_c_score": 0.9948, 
            "SSIM_feature_ssim_l_score": 0.999613, 
            "SSIM_feature_ssim_s_score": 0.919361, 
            "SSIM_score": 0.914566
        }, 
        {
            "frameNum": 48, 
            "SSIM_feature_ssim_c_score": 0.993276, 
            "SSIM_feature_ssim_l_score": 0.999416, 
            "SSIM_feature_ssim_s_score": 0.906003, 
            "SSIM_score": 0.899875
        }, 
        {
            "frameNum": 49, 
            "SSIM_feature_ssim_c_score": 0.994035, 
            "SSIM_feature_ssim_l_score": 0.999497, 
            "SSIM_feature_ssim_s_score": 0.910281, 
            "SSIM_score": 0.904837
        }, 
        {
            "frameNum": 50, 
            "SSIM_feature_ssim_c_score": 0.992973, 
            "SSIM_feature_ssim_l_score": 0.999411, 
            "SSIM_feature_ssim_s_score": 0.904087, 
            "SSIM_score": 0.897732
        }, 
        {
            "frameNum": 51, 
            "SSIM_feature_ssim_c_score": 0.994724, 
            "SSIM_feature_ssim_l_score": 0.999611, 
            "SSIM_feature_ssim_s_score": 0.917543, 
            "SSIM_score": 0.912672
        }, 
        {
            "frameNum": 52, 
            "SSIM_feature_ssim_c_score": 0.993055, 
            "SSIM_feature_ssim_l_score": 0.999438, 
            "SSIM_feature_ssim_s_score": 0.904448, 
            "SSIM_score": 0.89816
        }, 
        {
            "frameNum": 53, 
            "SSIM_feature_ssim_c_score": 0.994032, 
            "SSIM_feature_ssim_l_score": 0.999526, 
            "SSIM_feature_ssim_s_score": 0.91028, 
            "SSIM_score": 0.904803
        }, 
        {
            "frameNum": 54, 
            "SSIM_feature_ssim_c_score": 0.99314, 
            "SSIM_feature_ssim_l_score": 0.999409, 
            "SSIM_feature_ssim_s_score": 0.906518, 
            "SSIM_score": 0.900259
        }, 
        {
            "frameNum": 55, 
            "SSIM_feature_ssim_c_score": 0.9944, 
            "SSIM_feature_ssim_l_score": 0.999618, 
            "SSIM_feature_ssim_s_score": 0.91954, 
            "SSIM_score": 0.914393
        }, 
        {
            "frameNum": 56, 
            "SSIM_feature_ssim_c_score": 0.993091, 
            "SSIM_feature_ssim_l_score": 0.99943, 
            "SSIM_feature_ssim_s_score": 0.907422, 
            "SSIM_score": 0.901102
        }, 
        {
            "frameNum": 57, 
            "SSIM_feature_ssim_c_score": 0.994146, 
            "SSIM_feature_ssim_l_score": 0.999539, 
            "SSIM_feature_ssim_s_score": 0.911729, 
            "SSIM_score": 0.906379
        }, 
        {
            "frameNum": 58, 
            "SSIM_feature_ssim_c_score": 0.993002, 
            "SSIM_feature_ssim_l_score": 0.999439, 
            "SSIM_feature_ssim_s_score": 0.905683, 
            "SSIM_score": 0.899359
        }, 
        {
            "frameNum": 59, 
            "SSIM_feature_ssim_c_score": 0.994382, 
            "SSIM_feature_ssim_l_score": 0.999629, 
            "SSIM_feature_ssim_s_score": 0.919147, 
            "SSIM_score": 0.914027
        }, 
        {
            "frameNum": 60, 
            "SSIM_feature_ssim_c_score": 0.993027, 
            "SSIM_feature_ssim_l_score": 0.999469, 
            "SSIM_feature_ssim_s_score": 0.90577, 
            "SSIM_score": 0.899484
        }, 
        {
            "frameNum": 61, 
            "SSIM_feature_ssim_c_score": 0.994094, 
            "SSIM_feature_ssim_l_score": 0.999547, 
            "SSIM_feature_ssim_s_score": 0.91178, 
            "SSIM_score": 0.906349
        }, 
        {
            "frameNum": 62, 
            "SSIM_feature_ssim_c_score": 0.992998, 
            "SSIM_feature_ssim_l_score": 0.999445, 
            "SSIM_feature_ssim_s_score": 0.904655, 
            "SSIM_score": 0.898318
        }, 
        {
            "frameNum": 63, 
            "SSIM_feature_ssim_c_score": 0.99453, 
            "SSIM_feature_ssim_l_score": 0.99964, 
            "SSIM_feature_ssim_s_score": 0.919567, 
            "SSIM_score": 0.914567
        }, 
        {
            "frameNum": 64, 
            "SSIM_feature_ssim_c_score": 0.993506, 
            "SSIM_feature_ssim_l_score": 0.999464, 
            "SSIM_feature_ssim_s_score": 0.909786, 
            "SSIM_score": 0.903804
        }, 
        {
            "frameNum": 65, 
            "SSIM_feature_ssim_c_score": 0.994501, 
            "SSIM_feature_ssim_l_score": 0.999614, 
            "SSIM_feature_ssim_s_score": 0.916889, 
            "SSIM_score": 0.911806
        }, 
        {
            "frameNum": 66, 
            "SSIM_feature_ssim_c_score": 0.993243, 
            "SSIM_feature_ssim_l_score": 0.999455, 
            "SSIM_feature_ssim_s_score": 0.903419, 
            "SSIM_score": 0.897301
        }, 
        {
            "frameNum": 67, 
            "SSIM_feature_ssim_c_score": 0.993482, 
            "SSIM_feature_ssim_l_score": 0.999426, 
            "SSIM_feature_ssim_s_score": 0.905162, 
            "SSIM_score": 0.899238
        }, 
        {
            "frameNum": 68, 
            "SSIM_feature_ssim_c_score": 0.994797, 
            "SSIM_feature_ssim_l_score": 0.999649, 
            "SSIM_feature_ssim_s_score": 0.922261, 
            "SSIM_score": 0.917446
        }, 
        {
            "frameNum": 69, 
            "SSIM_feature_ssim_c_score": 0.993491, 
            "SSIM_feature_ssim_l_score": 0.999496, 
            "SSIM_feature_ssim_s_score": 0.911457, 
            "SSIM_score": 0.905488
        }, 
        {
            "frameNum": 70, 
            "SSIM_feature_ssim_c_score": 0.994453, 
            "SSIM_feature_ssim_l_score": 0.999583, 
            "SSIM_feature_ssim_s_score": 0.917634, 
            "SSIM_score": 0.912466
        }, 
        {
            "frameNum": 71, 
            "SSIM_feature_ssim_c_score": 0.993387, 
            "SSIM_feature_ssim_l_score": 0.999416, 
            "SSIM_feature_ssim_s_score": 0.902634, 
            "SSIM_score": 0.896592
        }, 
        {
            "frameNum": 72, 
            "SSIM_feature_ssim_c_score": 0.993776, 
            "SSIM_feature_ssim_l_score": 0.999411, 
            "SSIM_feature_ssim_s_score": 0.903215, 
            "SSIM_score": 0.897481
        }, 
        {
            "frameNum": 73, 
            "SSIM_feature_ssim_c_score": 0.99467, 
            "SSIM_feature_ssim_l_score": 0.999632, 
            "SSIM_feature_ssim_s_score": 0.919539, 
            "SSIM_score": 0.914617
        }, 
        {
            "frameNum": 74, 
            "SSIM_feature_ssim_c_score": 0.993408, 
            "SSIM_feature_ssim_l_score": 0.999439, 
            "SSIM_feature_ssim_s_score": 0.906087, 
            "SSIM_score": 0.900007
        }, 
        {
            "frameNum": 75, 
            "SSIM_feature_ssim_c_score": 0.993939, 
            "SSIM_feature_ssim_l_score": 0.999567, 
            "SSIM_feature_ssim_s_score": 0.911741, 
            "SSIM_score": 0.906178
        }, 
        {
            "frameNum": 76, 
            "SSIM_feature_ssim_c_score": 0.99296, 
            "SSIM_feature_ssim_l_score": 0.999483, 
            "SSIM_feature_ssim_s_score": 0.90566, 
            "SSIM_score": 0.899309
        }, 
        {
            "frameNum": 77, 
            "SSIM_feature_ssim_c_score": 0.994448, 
            "SSIM_feature_ssim_l_score": 0.999645, 
            "SSIM_feature_ssim_s_score": 0.917542, 
            "SSIM_score": 0.912443
        }, 
        {
            "frameNum": 78, 
            "SSIM_feature_ssim_c_score": 0.992563, 
            "SSIM_feature_ssim_l_score": 0.999442, 
            "SSIM_feature_ssim_s_score": 0.904603, 
            "SSIM_score": 0.897839
        }, 
        {
            "frameNum": 79, 
            "SSIM_feature_ssim_c_score": 0.993644, 
            "SSIM_feature_ssim_l_score": 0.999551, 
            "SSIM_feature_ssim_s_score": 0.908789, 
            "SSIM_score": 0.903031
        }, 
        {
            "frameNum": 80, 
            "SSIM_feature_ssim_c_score": 0.992641, 
            "SSIM_feature_ssim_l_score": 0.999468, 
            "SSIM_feature_ssim_s_score": 0.903918, 
            "SSIM_score": 0.897292
        }, 
        {
            "frameNum": 81, 
            "SSIM_feature_ssim_c_score": 0.994151, 
            "SSIM_feature_ssim_l_score": 0.999607, 
            "SSIM_feature_ssim_s_score": 0.915502, 
            "SSIM_score": 0.910152
        }, 
        {
            "frameNum": 82, 
            "SSIM_feature_ssim_c_score": 0.992446, 
            "SSIM_feature_ssim_l_score": 0.999442, 
            "SSIM_feature_ssim_s_score": 0.903396, 
            "SSIM_score": 0.89662
        }, 
        {
            "frameNum": 83, 
            "SSIM_feature_ssim_c_score": 0.993697, 
            "SSIM_feature_ssim_l_score": 0.999564, 
            "SSIM_feature_ssim_s_score": 0.908879, 
            "SSIM_score": 0.903159
        }, 
        {
            "frameNum": 84, 
            "SSIM_feature_ssim_c_score": 0.993067, 
            "SSIM_feature_ssim_l_score": 0.99948, 
            "SSIM_feature_ssim_s_score": 0.90319, 
            "SSIM_score": 0.896945
        }, 
        {
            "frameNum": 85, 
            "SSIM_feature_ssim_c_score": 0.994367, 
            "SSIM_feature_ssim_l_score": 0.999656, 
            "SSIM_feature_ssim_s_score": 0.917664, 
            "SSIM_score": 0.912511
        }, 
        {
            "frameNum": 86, 
            "SSIM_feature_ssim_c_score": 0.992944, 
            "SSIM_feature_ssim_l_score": 0.999502, 
            "SSIM_feature_ssim_s_score": 0.905783, 
            "SSIM_score": 0.899369
        }, 
        {
            "frameNum": 87, 
            "SSIM_feature_ssim_c_score": 0.994104, 
            "SSIM_feature_ssim_l_score": 0.999606, 
            "SSIM_feature_ssim_s_score": 0.911542, 
            "SSIM_score": 0.90614
        }, 
        {
            "frameNum": 88, 
            "SSIM_feature_ssim_c_score": 0.993127, 
            "SSIM_feature_ssim_l_score": 0.999429, 
            "SSIM_feature_ssim_s_score": 0.897919, 
            "SSIM_score": 0.891689
        }, 
        {
            "frameNum": 89, 
            "SSIM_feature_ssim_c_score": 0.992884, 
            "SSIM_feature_ssim_l_score": 0.999439, 
            "SSIM_feature_ssim_s_score": 0.896701, 
            "SSIM_score": 0.890348
        }, 
        {
            "frameNum": 90, 
            "SSIM_feature_ssim_c_score": 0.993974, 
            "SSIM_feature_ssim_l_score": 0.999658, 
            "SSIM_feature_ssim_s_score": 0.913632, 
            "SSIM_score": 0.908221
        }, 
        {
            "frameNum": 91, 
            "SSIM_feature_ssim_c_score": 0.99207, 
            "SSIM_feature_ssim_l_score": 0.999485, 
            "SSIM_feature_ssim_s_score": 0.899654, 
            "SSIM_score": 0.892662
        }, 
        {
            "frameNum": 92, 
            "SSIM_feature_ssim_c_score": 0.993348, 
            "SSIM_feature_ssim_l_score": 0.99956, 
            "SSIM_feature_ssim_s_score": 0.906096, 
            "SSIM_score": 0.900123
        }, 
        {
            "frameNum": 93, 
            "SSIM_feature_ssim_c_score": 0.992613, 
            "SSIM_feature_ssim_l_score": 0.999482, 
            "SSIM_feature_ssim_s_score": 0.900808, 
            "SSIM_score": 0.894218
        }, 
        {
            "frameNum": 94, 
            "SSIM_feature_ssim_c_score": 0.994101, 
            "SSIM_feature_ssim_l_score": 0.999639, 
            "SSIM_feature_ssim_s_score": 0.914765, 
            "SSIM_score": 0.9094
        }, 
        {
            "frameNum": 95, 
            "SSIM_feature_ssim_c_score": 0.99245, 
            "SSIM_feature_ssim_l_score": 0.999513, 
            "SSIM_feature_ssim_s_score": 0.902377, 
            "SSIM_score": 0.895637
        }, 
        {
            "frameNum": 96, 
            "SSIM_feature_ssim_c_score": 0.992974, 
            "SSIM_feature_ssim_l_score": 0.999578, 
            "SSIM_feature_ssim_s_score": 0.906799, 
            "SSIM_score": 0.900539
        }, 
        {
            "frameNum": 97, 
            "SSIM_feature_ssim_c_score": 0.992228, 
            "SSIM_feature_ssim_l_score": 0.999496, 
            "SSIM_feature_ssim_s_score": 0.901, 
            "SSIM_score": 0.894075
        }, 
        {
            "frameNum": 98, 
            "SSIM_feature_ssim_c_score": 0.994022, 
            "SSIM_feature_ssim_l_score": 0.999671, 
            "SSIM_feature_ssim_s_score": 0.913967, 
            "SSIM_score": 0.908573
        }, 
        {
            "frameNum": 99, 
            "SSIM_feature_ssim_c_score": 0.992266, 
            "SSIM_feature_ssim_l_score": 0.999462, 
            "SSIM_feature_ssim_s_score": 0.899704, 
            "SSIM_score": 0.892776
        }, 
        {
            "frameNum": 100, 
            "SSIM_feature_ssim_c_score": 0.993522, 
            "SSIM_feature_ssim_l_score": 0.999573, 
            "SSIM_feature_ssim_s_score": 0.90862, 
            "SSIM_score": 0.902752
        }, 
        {
            "frameNum": 101, 
            "SSIM_feature_ssim_c_score": 0.992628, 
            "SSIM_feature_ssim_l_score": 0.999485, 
            "SSIM_feature_ssim_s_score": 0.901984, 
            "SSIM_score": 0.895382
        }, 
        {
            "frameNum": 102, 
            "SSIM_feature_ssim_c_score": 0.993917, 
            "SSIM_feature_ssim_l_score": 0.999644, 
            "SSIM_feature_ssim_s_score": 0.915623, 
            "SSIM_score": 0.910092
        }, 
        {
            "frameNum": 103, 
            "SSIM_feature_ssim_c_score": 0.99179, 
            "SSIM_feature_ssim_l_score": 0.999443, 
            "SSIM_feature_ssim_s_score": 0.899118, 
            "SSIM_score": 0.891845
        }, 
        {
            "frameNum": 104, 
            "SSIM_feature_ssim_c_score": 0.993089, 
            "SSIM_feature_ssim_l_score": 0.999562, 
            "SSIM_feature_ssim_s_score": 0.905473, 
            "SSIM_score": 0.899284
        }, 
        {
            "frameNum": 105, 
            "SSIM_feature_ssim_c_score": 0.992269, 
            "SSIM_feature_ssim_l_score": 0.999442, 
            "SSIM_feature_ssim_s_score": 0.899455, 
            "SSIM_score": 0.89251
        }, 
        {
            "frameNum": 106, 
            "SSIM_feature_ssim_c_score": 0.993344, 
            "SSIM_feature_ssim_l_score": 0.999614, 
            "SSIM_feature_ssim_s_score": 0.911382, 
            "SSIM_score": 0.90543
        }, 
        {
            "frameNum": 107, 
            "SSIM_feature_ssim_c_score": 0.991441, 
            "SSIM_feature_ssim_l_score": 0.99945, 
            "SSIM_feature_ssim_s_score": 0.897116, 
            "SSIM_score": 0.889588
        }, 
        {
            "frameNum": 108, 
            "SSIM_feature_ssim_c_score": 0.992889, 
            "SSIM_feature_ssim_l_score": 0.999529, 
            "SSIM_feature_ssim_s_score": 0.903381, 
            "SSIM_score": 0.897002
        }, 
        {
            "frameNum": 109, 
            "SSIM_feature_ssim_c_score": 0.992222, 
            "SSIM_feature_ssim_l_score": 0.99946, 
            "SSIM_feature_ssim_s_score": 0.898597, 
            "SSIM_score": 0.891661
        }, 
        {
            "frameNum": 110, 
            "SSIM_feature_ssim_c_score": 0.99353, 
            "SSIM_feature_ssim_l_score": 0.999638, 
            "SSIM_feature_ssim_s_score": 0.913943, 
            "SSIM_score": 0.908137
        }, 
        {
            "frameNum": 111, 
            "SSIM_feature_ssim_c_score": 0.992165, 
            "SSIM_feature_ssim_l_score": 0.999446, 
            "SSIM_feature_ssim_s_score": 0.901968, 
            "SSIM_score": 0.894941
        }, 
        {
            "frameNum": 112, 
            "SSIM_feature_ssim_c_score": 0.993315, 
            "SSIM_feature_ssim_l_score": 0.999568, 
            "SSIM_feature_ssim_s_score": 0.907191, 
            "SSIM_score": 0.901185
        }, 
        {
            "frameNum": 113, 
            "SSIM_feature_ssim_c_score": 0.992186, 
            "SSIM_feature_ssim_l_score": 0.99949, 
            "SSIM_feature_ssim_s_score": 0.903991, 
            "SSIM_score": 0.896929
        }, 
        {
            "frameNum": 114, 
            "SSIM_feature_ssim_c_score": 0.993732, 
            "SSIM_feature_ssim_l_score": 0.99965, 
            "SSIM_feature_ssim_s_score": 0.916227, 
            "SSIM_score": 0.910524
        }, 
        {
            "frameNum": 115, 
            "SSIM_feature_ssim_c_score": 0.991723, 
            "SSIM_feature_ssim_l_score": 0.999442, 
            "SSIM_feature_ssim_s_score": 0.899041, 
            "SSIM_score": 0.891651
        }, 
        {
            "frameNum": 116, 
            "SSIM_feature_ssim_c_score": 0.99276, 
            "SSIM_feature_ssim_l_score": 0.999535, 
            "SSIM_feature_ssim_s_score": 0.905339, 
            "SSIM_score": 0.898824
        }, 
        {
            "frameNum": 117, 
            "SSIM_feature_ssim_c_score": 0.992442, 
            "SSIM_feature_ssim_l_score": 0.999459, 
            "SSIM_feature_ssim_s_score": 0.89848, 
            "SSIM_score": 0.891738
        }, 
        {
            "frameNum": 118, 
            "SSIM_feature_ssim_c_score": 0.993556, 
            "SSIM_feature_ssim_l_score": 0.999627, 
            "SSIM_feature_ssim_s_score": 0.912641, 
            "SSIM_score": 0.906799
        }, 
        {
            "frameNum": 119, 
            "SSIM_feature_ssim_c_score": 0.991775, 
            "SSIM_feature_ssim_l_score": 0.999439, 
            "SSIM_feature_ssim_s_score": 0.897128, 
            "SSIM_score": 0.889849
        }, 
        {
            "frameNum": 120, 
            "SSIM_feature_ssim_c_score": 0.992999, 
            "SSIM_feature_ssim_l_score": 0.999538, 
            "SSIM_feature_ssim_s_score": 0.90405, 
            "SSIM_score": 0.89772
        }, 
        {
            "frameNum": 121, 
            "SSIM_feature_ssim_c_score": 0.992215, 
            "SSIM_feature_ssim_l_score": 0.999457, 
            "SSIM_feature_ssim_s_score": 0.898366, 
            "SSIM_score": 0.891367
        }, 
        {
            "frameNum": 122, 
            "SSIM_feature_ssim_c_score": 0.993634, 
            "SSIM_feature_ssim_l_score": 0.999616, 
            "SSIM_feature_ssim_s_score": 0.911188, 
            "SSIM_score": 0.905419
        }, 
        {
            "frameNum": 123, 
            "SSIM_feature_ssim_c_score": 0.992072, 
            "SSIM_feature_ssim_l_score": 0.999446, 
            "SSIM_feature_ssim_s_score": 0.899169, 
            "SSIM_score": 0.892035
        }, 
        {
            "frameNum": 124, 
            "SSIM_feature_ssim_c_score": 0.993188, 
            "SSIM_feature_ssim_l_score": 0.999533, 
            "SSIM_feature_ssim_s_score": 0.904033, 
            "SSIM_score": 0.897838
        }, 
        {
            "frameNum": 125, 
            "SSIM_feature_ssim_c_score": 0.992045, 
            "SSIM_feature_ssim_l_score": 0.999448, 
            "SSIM_feature_ssim_s_score": 0.898062, 
            "SSIM_score": 0.890942
        }, 
        {
            "frameNum": 126, 
            "SSIM_feature_ssim_c_score": 0.993525, 
            "SSIM_feature_ssim_l_score": 0.999644, 
            "SSIM_feature_ssim_s_score": 0.911039, 
            "SSIM_score": 0.905216
        }, 
        {
            "frameNum": 127, 
            "SSIM_feature_ssim_c_score": 0.991794, 
            "SSIM_feature_ssim_l_score": 0.999469, 
            "SSIM_feature_ssim_s_score": 0.896557, 
            "SSIM_score": 0.889267
        }, 
        {
            "frameNum": 128, 
            "SSIM_feature_ssim_c_score": 0.993022, 
            "SSIM_feature_ssim_l_score": 0.999554, 
            "SSIM_feature_ssim_s_score": 0.902597, 
            "SSIM_score": 0.896325
        }, 
        {
            "frameNum": 129, 
            "SSIM_feature_ssim_c_score": 0.992153, 
            "SSIM_feature_ssim_l_score": 0.999475, 
            "SSIM_feature_ssim_s_score": 0.899621, 
            "SSIM_score": 0.892595
        }, 
        {
            "frameNum": 130, 
            "SSIM_feature_ssim_c_score": 0.99389, 
            "SSIM_feature_ssim_l_score": 0.999646, 
            "SSIM_feature_ssim_s_score": 0.912716, 
            "SSIM_score": 0.907139
        }, 
        {
            "frameNum": 131, 
            "SSIM_feature_ssim_c_score": 0.992441, 
            "SSIM_feature_ssim_l_score": 0.999494, 
            "SSIM_feature_ssim_s_score": 0.898999, 
            "SSIM_score": 0.892184
        }, 
        {
            "frameNum": 132, 
            "SSIM_feature_ssim_c_score": 0.993329, 
            "SSIM_feature_ssim_l_score": 0.999582, 
            "SSIM_feature_ssim_s_score": 0.905905, 
            "SSIM_score": 0.899872
        }, 
        {
            "frameNum": 133, 
            "SSIM_feature_ssim_c_score": 0.992578, 
            "SSIM_feature_ssim_l_score": 0.999472, 
            "SSIM_feature_ssim_s_score": 0.899479, 
            "SSIM_score": 0.892789
        }, 
        {
            "frameNum": 134, 
            "SSIM_feature_ssim_c_score": 0.994219, 
            "SSIM_feature_ssim_l_score": 0.999669, 
            "SSIM_feature_ssim_s_score": 0.915283, 
            "SSIM_score": 0.909981
        }, 
        {
            "frameNum": 135, 
            "SSIM_feature_ssim_c_score": 0.992479, 
            "SSIM_feature_ssim_l_score": 0.99947, 
            "SSIM_feature_ssim_s_score": 0.901891, 
            "SSIM_score": 0.895085
        }, 
        {
            "frameNum": 136, 
            "SSIM_feature_ssim_c_score": 0.99386, 
            "SSIM_feature_ssim_l_score": 0.999589, 
            "SSIM_feature_ssim_s_score": 0.908372, 
            "SSIM_score": 0.902732
        }, 
        {
            "frameNum": 137, 
            "SSIM_feature_ssim_c_score": 0.99312, 
            "SSIM_feature_ssim_l_score": 0.999496, 
            "SSIM_feature_ssim_s_score": 0.904023, 
            "SSIM_score": 0.897702
        }, 
        {
            "frameNum": 138, 
            "SSIM_feature_ssim_c_score": 0.994178, 
            "SSIM_feature_ssim_l_score": 0.999648, 
            "SSIM_feature_ssim_s_score": 0.91644, 
            "SSIM_score": 0.911054
        }, 
        {
            "frameNum": 139, 
            "SSIM_feature_ssim_c_score": 0.992676, 
            "SSIM_feature_ssim_l_score": 0.999464, 
            "SSIM_feature_ssim_s_score": 0.903099, 
            "SSIM_score": 0.896405
        }, 
        {
            "frameNum": 140, 
            "SSIM_feature_ssim_c_score": 0.993883, 
            "SSIM_feature_ssim_l_score": 0.999548, 
            "SSIM_feature_ssim_s_score": 0.909303, 
            "SSIM_score": 0.903616
        }, 
        {
            "frameNum": 141, 
            "SSIM_feature_ssim_c_score": 0.993069, 
            "SSIM_feature_ssim_l_score": 0.999462, 
            "SSIM_feature_ssim_s_score": 0.903802, 
            "SSIM_score": 0.897421
        }, 
        {
            "frameNum": 142, 
            "SSIM_feature_ssim_c_score": 0.994141, 
            "SSIM_feature_ssim_l_score": 0.999629, 
            "SSIM_feature_ssim_s_score": 0.915532, 
            "SSIM_score": 0.91011
        }, 
        {
            "frameNum": 143, 
            "SSIM_feature_ssim_c_score": 0.993395, 
            "SSIM_feature_ssim_l_score": 0.999447, 
            "SSIM_feature_ssim_s_score": 0.90225, 
            "SSIM_score": 0.896137
        }, 
        {
            "frameNum": 144, 
            "SSIM_feature_ssim_c_score": 0.992586, 
            "SSIM_feature_ssim_l_score": 0.999421, 
            "SSIM_feature_ssim_s_score": 0.898353, 
            "SSIM_score": 0.891595
        }, 
        {
            "frameNum": 145, 
            "SSIM_feature_ssim_c_score": 0.994105, 
            "SSIM_feature_ssim_l_score": 0.999604, 
            "SSIM_feature_ssim_s_score": 0.913536, 
            "SSIM_score": 0.908039
        }, 
        {
            "frameNum": 146, 
            "SSIM_feature_ssim_c_score": 0.992143, 
            "SSIM_feature_ssim_l_score": 0.999408, 
            "SSIM_feature_ssim_s_score": 0.898775, 
            "SSIM_score": 0.891606
        }, 
        {
            "frameNum": 147, 
            "SSIM_feature_ssim_c_score": 0.993258, 
            "SSIM_feature_ssim_l_score": 0.999556, 
            "SSIM_feature_ssim_s_score": 0.90356, 
            "SSIM_score": 0.897358
        }, 
        {
            "frameNum": 148, 
            "SSIM_feature_ssim_c_score": 0.991812, 
            "SSIM_feature_ssim_l_score": 0.999395, 
            "SSIM_feature_ssim_s_score": 0.892303, 
            "SSIM_score": 0.884892
        }, 
        {
            "frameNum": 149, 
            "SSIM_feature_ssim_c_score": 0.992788, 
            "SSIM_feature_ssim_l_score": 0.999431, 
            "SSIM_feature_ssim_s_score": 0.89281, 
            "SSIM_score": 0.886223
        }
    ], 
    "aggregate": {
        "SSIM_feature_ssim_c_score": 0.9935879066666666, 
        "SSIM_feature_ssim_l_score": 0.9995062733333335, 
        "SSIM_feature_ssim_s_score": 0.9088849200000001, 
        "SSIM_score": 0.9030485399999998, 
        "method": "mean"
    }
}
