{
    "executorId": "VMAF_VF0.2.4c-0.6.1", 
    "asset": {
        "identifier": "cmd_414111148511373_414111148511373_food_market_30fps_scaled_0RP_cut1_854x480_vs_food_market_30fps_scaled_4RP_cut1_854x480_q_854x480"
    }, 
    "frames": [
        {
            "frameNum": 0, 
            "VMAF_feature_adm2_score": 0.9735091862899544, 
            "VMAF_feature_motion2_score": 0.0, 
            "VMAF_feature_vif_scale0_score": 0.5491959768613993, 
            "VMAF_feature_vif_scale1_score": 0.9159772737827352, 
            "VMAF_feature_vif_scale2_score": 0.9597374262990647, 
            "VMAF_feature_vif_scale3_score": 0.978082478716082, 
            "VMAF_score": 88.21925899455918
        }, 
        {
            "frameNum": 1, 
            "VMAF_feature_adm2_score": 0.9709577855672985, 
            "VMAF_feature_motion2_score": 15.335593, 
            "VMAF_feature_vif_scale0_score": 0.564790522644593, 
            "VMAF_feature_vif_scale1_score": 0.904509207445944, 
            "VMAF_feature_vif_scale2_score": 0.9528905447725846, 
            "VMAF_feature_vif_scale3_score": 0.9742243934863991, 
            "VMAF_score": 100.0
        }, 
        {
            "frameNum": 2, 
            "VMAF_feature_adm2_score": 0.9706175289145653, 
            "VMAF_feature_motion2_score": 15.114425, 
            "VMAF_feature_vif_scale0_score": 0.5633495780118007, 
            "VMAF_feature_vif_scale1_score": 0.9049264374307256, 
            "VMAF_feature_vif_scale2_score": 0.9524421544020384, 
            "VMAF_feature_vif_scale3_score": 0.9740707427910034, 
            "VMAF_score": 100.0
        }, 
        {
            "frameNum": 3, 
            "VMAF_feature_adm2_score": 0.9730580495181671, 
            "VMAF_feature_motion2_score": 14.439585, 
            "VMAF_feature_vif_scale0_score": 0.566612206821669, 
            "VMAF_feature_vif_scale1_score": 0.9105578507699937, 
            "VMAF_feature_vif_scale2_score": 0.956195367153418, 
            "VMAF_feature_vif_scale3_score": 0.9753529926348794, 
            "VMAF_score": 100.0
        }, 
        {
            "frameNum": 4, 
            "VMAF_feature_adm2_score": 0.9753977037065094, 
            "VMAF_feature_motion2_score": 14.092732, 
            "VMAF_feature_vif_scale0_score": 0.5574871224428745, 
            "VMAF_feature_vif_scale1_score": 0.9180033937422244, 
            "VMAF_feature_vif_scale2_score": 0.9607452446353522, 
            "VMAF_feature_vif_scale3_score": 0.978968485577516, 
            "VMAF_score": 100.0
        }, 
        {
            "frameNum": 5, 
            "VMAF_feature_adm2_score": 0.9719393448076619, 
            "VMAF_feature_motion2_score": 13.785561, 
            "VMAF_feature_vif_scale0_score": 0.5741801753319599, 
            "VMAF_feature_vif_scale1_score": 0.9086478684683931, 
            "VMAF_feature_vif_scale2_score": 0.954581193054809, 
            "VMAF_feature_vif_scale3_score": 0.9755147761538693, 
            "VMAF_score": 100.0
        }, 
        {
            "frameNum": 6, 
            "VMAF_feature_adm2_score": 0.97160706187716, 
            "VMAF_feature_motion2_score": 13.785561, 
            "VMAF_feature_vif_scale0_score": 0.571528817234507, 
            "VMAF_feature_vif_scale1_score": 0.9084878454673838, 
            "VMAF_feature_vif_scale2_score": 0.9541143090282929, 
            "VMAF_feature_vif_scale3_score": 0.9736449262050294, 
            "VMAF_score": 100.0
        }, 
        {
            "frameNum": 7, 
            "VMAF_feature_adm2_score": 0.9739195704935697, 
            "VMAF_feature_motion2_score": 13.81534, 
            "VMAF_feature_vif_scale0_score": 0.57872746709567, 
            "VMAF_feature_vif_scale1_score": 0.9158704343947812, 
            "VMAF_feature_vif_scale2_score": 0.9593959320091298, 
            "VMAF_feature_vif_scale3_score": 0.9780702770162064, 
            "VMAF_score": 100.0
        }, 
        {
            "frameNum": 8, 
            "VMAF_feature_adm2_score": 0.97565330867843, 
            "VMAF_feature_motion2_score": 13.89897, 
            "VMAF_feature_vif_scale0_score": 0.566729385131128, 
            "VMAF_feature_vif_scale1_score": 0.9239427974263171, 
            "VMAF_feature_vif_scale2_score": 0.9642493992653706, 
            "VMAF_feature_vif_scale3_score": 0.9808104197898337, 
            "VMAF_score": 100.0
        }, 
        {
            "frameNum": 9, 
            "VMAF_feature_adm2_score": 0.9748970062700214, 
            "VMAF_feature_motion2_score": 14.332139, 
            "VMAF_feature_vif_scale0_score": 0.5831006599195718, 
            "VMAF_feature_vif_scale1_score": 0.912319479334409, 
            "VMAF_feature_vif_scale2_score": 0.956213629816329, 
            "VMAF_feature_vif_scale3_score": 0.9750262483406682, 
            "VMAF_score": 100.0
        }, 
        {
            "frameNum": 10, 
            "VMAF_feature_adm2_score": 0.9756663849452379, 
            "VMAF_feature_motion2_score": 14.397637, 
            "VMAF_feature_vif_scale0_score": 0.5873142133422901, 
            "VMAF_feature_vif_scale1_score": 0.9208827963335009, 
            "VMAF_feature_vif_scale2_score": 0.961569835396275, 
            "VMAF_feature_vif_scale3_score": 0.9784948630473359, 
            "VMAF_score": 100.0
        }, 
        {
            "frameNum": 11, 
            "VMAF_feature_adm2_score": 0.973367565084983, 
            "VMAF_feature_motion2_score": 14.323622, 
            "VMAF_feature_vif_scale0_score": 0.5762179313660714, 
            "VMAF_feature_vif_scale1_score": 0.9123964080609666, 
            "VMAF_feature_vif_scale2_score": 0.9562461430405639, 
            "VMAF_feature_vif_scale3_score": 0.9748912432710081, 
            "VMAF_score": 100.0
        }, 
        {
            "frameNum": 12, 
            "VMAF_feature_adm2_score": 0.974483202610138, 
            "VMAF_feature_motion2_score": 14.064783, 
            "VMAF_feature_vif_scale0_score": 0.5699274721007804, 
            "VMAF_feature_vif_scale1_score": 0.9255737660154201, 
            "VMAF_feature_vif_scale2_score": 0.9645344257214421, 
            "VMAF_feature_vif_scale3_score": 0.9802801776768196, 
            "VMAF_score": 100.0
        }, 
        {
            "frameNum": 13, 
            "VMAF_feature_adm2_score": 0.9737949697926109, 
            "VMAF_feature_motion2_score": 14.044374, 
            "VMAF_feature_vif_scale0_score": 0.5825692957609353, 
            "VMAF_feature_vif_scale1_score": 0.9132311026330775, 
            "VMAF_feature_vif_scale2_score": 0.9567615403782104, 
            "VMAF_feature_vif_scale3_score": 0.9762559639595051, 
            "VMAF_score": 100.0
        }, 
        {
            "frameNum": 14, 
            "VMAF_feature_adm2_score": 0.9770638315662201, 
            "VMAF_feature_motion2_score": 13.976427, 
            "VMAF_feature_vif_scale0_score": 0.5943685272073155, 
            "VMAF_feature_vif_scale1_score": 0.9273153412334879, 
            "VMAF_feature_vif_scale2_score": 0.9656470763085383, 
            "VMAF_feature_vif_scale3_score": 0.9810392645122101, 
            "VMAF_score": 100.0
        }, 
        {
            "frameNum": 15, 
            "VMAF_feature_adm2_score": 0.9728890181965842, 
            "VMAF_feature_motion2_score": 13.976427, 
            "VMAF_feature_vif_scale0_score": 0.5828683168973078, 
            "VMAF_feature_vif_scale1_score": 0.9156744257443774, 
            "VMAF_feature_vif_scale2_score": 0.9582107888580591, 
            "VMAF_feature_vif_scale3_score": 0.9764541753806982, 
            "VMAF_score": 100.0
        }, 
        {
            "frameNum": 16, 
            "VMAF_feature_adm2_score": 0.97556871888267, 
            "VMAF_feature_motion2_score": 14.184491, 
            "VMAF_feature_vif_scale0_score": 0.5760742682070279, 
            "VMAF_feature_vif_scale1_score": 0.9298113952074889, 
            "VMAF_feature_vif_scale2_score": 0.9672504022181465, 
            "VMAF_feature_vif_scale3_score": 0.9821564729907872, 
            "VMAF_score": 100.0
        }, 
        {
            "frameNum": 17, 
            "VMAF_feature_adm2_score": 0.975285873815747, 
            "VMAF_feature_motion2_score": 14.403421, 
            "VMAF_feature_vif_scale0_score": 0.5907285935911839, 
            "VMAF_feature_vif_scale1_score": 0.9180026435270544, 
            "VMAF_feature_vif_scale2_score": 0.9590822310982594, 
            "VMAF_feature_vif_scale3_score": 0.9767876954080585, 
            "VMAF_score": 100.0
        }, 
        {
            "frameNum": 18, 
            "VMAF_feature_adm2_score": 0.9763895075233863, 
            "VMAF_feature_motion2_score": 14.624356, 
            "VMAF_feature_vif_scale0_score": 0.5993271353868993, 
            "VMAF_feature_vif_scale1_score": 0.9286582373863914, 
            "VMAF_feature_vif_scale2_score": 0.965620801873077, 
            "VMAF_feature_vif_scale3_score": 0.9806041368254825, 
            "VMAF_score": 100.0
        }, 
        {
            "frameNum": 19, 
            "VMAF_feature_adm2_score": 0.9742151773754905, 
            "VMAF_feature_motion2_score": 14.650739, 
            "VMAF_feature_vif_scale0_score": 0.586078908846495, 
            "VMAF_feature_vif_scale1_score": 0.9166352449739424, 
            "VMAF_feature_vif_scale2_score": 0.9587767627735448, 
            "VMAF_feature_vif_scale3_score": 0.9766498285491944, 
            "VMAF_score": 100.0
        }, 
        {
            "frameNum": 20, 
            "VMAF_feature_adm2_score": 0.97638506199268, 
            "VMAF_feature_motion2_score": 14.445989, 
            "VMAF_feature_vif_scale0_score": 0.5798613145276805, 
            "VMAF_feature_vif_scale1_score": 0.9332747121357625, 
            "VMAF_feature_vif_scale2_score": 0.9689796386080294, 
            "VMAF_feature_vif_scale3_score": 0.9828847267570489, 
            "VMAF_score": 100.0
        }, 
        {
            "frameNum": 21, 
            "VMAF_feature_adm2_score": 0.9734435239319814, 
            "VMAF_feature_motion2_score": 13.787035, 
            "VMAF_feature_vif_scale0_score": 0.5875317357206692, 
            "VMAF_feature_vif_scale1_score": 0.9171954053663364, 
            "VMAF_feature_vif_scale2_score": 0.9585052801391681, 
            "VMAF_feature_vif_scale3_score": 0.975877374371406, 
            "VMAF_score": 100.0
        }, 
        {
            "frameNum": 22, 
            "VMAF_feature_adm2_score": 0.9730475849899533, 
            "VMAF_feature_motion2_score": 13.4198, 
            "VMAF_feature_vif_scale0_score": 0.5855326809428364, 
            "VMAF_feature_vif_scale1_score": 0.9184106707692556, 
            "VMAF_feature_vif_scale2_score": 0.9590742626538123, 
            "VMAF_feature_vif_scale3_score": 0.9766460529857034, 
            "VMAF_score": 100.0
        }, 
        {
            "frameNum": 23, 
            "VMAF_feature_adm2_score": 0.9741002965842542, 
            "VMAF_feature_motion2_score": 13.020247, 
            "VMAF_feature_vif_scale0_score": 0.5877830328902701, 
            "VMAF_feature_vif_scale1_score": 0.922362009758476, 
            "VMAF_feature_vif_scale2_score": 0.9623921960930675, 
            "VMAF_feature_vif_scale3_score": 0.9796511621831016, 
            "VMAF_score": 100.0
        }, 
        {
            "frameNum": 24, 
            "VMAF_feature_adm2_score": 0.9748248430839793, 
            "VMAF_feature_motion2_score": 12.724188, 
            "VMAF_feature_vif_scale0_score": 0.5751509411295614, 
            "VMAF_feature_vif_scale1_score": 0.9285170029376036, 
            "VMAF_feature_vif_scale2_score": 0.9655815096197023, 
            "VMAF_feature_vif_scale3_score": 0.9807104901172249, 
            "VMAF_score": 100.0
        }, 
        {
            "frameNum": 25, 
            "VMAF_feature_adm2_score": 0.9746112277800433, 
            "VMAF_feature_motion2_score": 12.541099, 
            "VMAF_feature_vif_scale0_score": 0.5985368853881561, 
            "VMAF_feature_vif_scale1_score": 0.924381461915881, 
            "VMAF_feature_vif_scale2_score": 0.9626895742387275, 
            "VMAF_feature_vif_scale3_score": 0.9793019385300737, 
            "VMAF_score": 100.0
        }, 
        {
            "frameNum": 26, 
            "VMAF_feature_adm2_score": 0.9748590456420947, 
            "VMAF_feature_motion2_score": 12.323362, 
            "VMAF_feature_vif_scale0_score": 0.5958108105937261, 
            "VMAF_feature_vif_scale1_score": 0.9253403153149984, 
            "VMAF_feature_vif_scale2_score": 0.9633665571085618, 
            "VMAF_feature_vif_scale3_score": 0.9797338718815607, 
            "VMAF_score": 100.0
        }, 
        {
            "frameNum": 27, 
            "VMAF_feature_adm2_score": 0.9759737400572421, 
            "VMAF_feature_motion2_score": 12.323362, 
            "VMAF_feature_vif_scale0_score": 0.5951821287909681, 
            "VMAF_feature_vif_scale1_score": 0.9237037516891866, 
            "VMAF_feature_vif_scale2_score": 0.9628462983397065, 
            "VMAF_feature_vif_scale3_score": 0.9797093877122256, 
            "VMAF_score": 100.0
        }, 
        {
            "frameNum": 28, 
            "VMAF_feature_adm2_score": 0.9799197239856886, 
            "VMAF_feature_motion2_score": 12.429351, 
            "VMAF_feature_vif_scale0_score": 0.5940801004593695, 
            "VMAF_feature_vif_scale1_score": 0.9413665905216372, 
            "VMAF_feature_vif_scale2_score": 0.973629021002041, 
            "VMAF_feature_vif_scale3_score": 0.9861798621750962, 
            "VMAF_score": 100.0
        }, 
        {
            "frameNum": 29, 
            "VMAF_feature_adm2_score": 0.9785809999786518, 
            "VMAF_feature_motion2_score": 12.515758, 
            "VMAF_feature_vif_scale0_score": 0.6081787105429037, 
            "VMAF_feature_vif_scale1_score": 0.9297543291310878, 
            "VMAF_feature_vif_scale2_score": 0.9656062360081823, 
            "VMAF_feature_vif_scale3_score": 0.9807315972152421, 
            "VMAF_score": 100.0
        }, 
        {
            "frameNum": 30, 
            "VMAF_feature_adm2_score": 0.9782262412411948, 
            "VMAF_feature_motion2_score": 12.534844, 
            "VMAF_feature_vif_scale0_score": 0.6120535881195722, 
            "VMAF_feature_vif_scale1_score": 0.9332716393765371, 
            "VMAF_feature_vif_scale2_score": 0.9680872447491004, 
            "VMAF_feature_vif_scale3_score": 0.9821564032579937, 
            "VMAF_score": 100.0
        }, 
        {
            "frameNum": 31, 
            "VMAF_feature_adm2_score": 0.9768214687947789, 
            "VMAF_feature_motion2_score": 12.214727, 
            "VMAF_feature_vif_scale0_score": 0.6015395931937836, 
            "VMAF_feature_vif_scale1_score": 0.9265484707519805, 
            "VMAF_feature_vif_scale2_score": 0.9644027374066402, 
            "VMAF_feature_vif_scale3_score": 0.9804228349254742, 
            "VMAF_score": 100.0
        }, 
        {
            "frameNum": 32, 
            "VMAF_feature_adm2_score": 0.9799151605620836, 
            "VMAF_feature_motion2_score": 12.200822, 
            "VMAF_feature_vif_scale0_score": 0.6009934284930621, 
            "VMAF_feature_vif_scale1_score": 0.9440965163663841, 
            "VMAF_feature_vif_scale2_score": 0.9748565749555392, 
            "VMAF_feature_vif_scale3_score": 0.9866179062766717, 
            "VMAF_score": 100.0
        }, 
        {
            "frameNum": 33, 
            "VMAF_feature_adm2_score": 0.9788677418557932, 
            "VMAF_feature_motion2_score": 11.852223, 
            "VMAF_feature_vif_scale0_score": 0.6152075846136239, 
            "VMAF_feature_vif_scale1_score": 0.9339168302249783, 
            "VMAF_feature_vif_scale2_score": 0.9687777001722369, 
            "VMAF_feature_vif_scale3_score": 0.9828491817705817, 
            "VMAF_score": 100.0
        }, 
        {
            "frameNum": 34, 
            "VMAF_feature_adm2_score": 0.978986605304696, 
            "VMAF_feature_motion2_score": 11.503301, 
            "VMAF_feature_vif_scale0_score": 0.6144930774237224, 
            "VMAF_feature_vif_scale1_score": 0.9357245359727752, 
            "VMAF_feature_vif_scale2_score": 0.9694434169325387, 
            "VMAF_feature_vif_scale3_score": 0.9837232633081848, 
            "VMAF_score": 100.0
        }, 
        {
            "frameNum": 35, 
            "VMAF_feature_adm2_score": 0.9791066384721273, 
            "VMAF_feature_motion2_score": 11.483718, 
            "VMAF_feature_vif_scale0_score": 0.6069719831763586, 
            "VMAF_feature_vif_scale1_score": 0.9322579575256669, 
            "VMAF_feature_vif_scale2_score": 0.9672546056299451, 
            "VMAF_feature_vif_scale3_score": 0.9821503050741776, 
            "VMAF_score": 100.0
        }, 
        {
            "frameNum": 36, 
            "VMAF_feature_adm2_score": 0.9806606149351188, 
            "VMAF_feature_motion2_score": 11.483718, 
            "VMAF_feature_vif_scale0_score": 0.6044170015357687, 
            "VMAF_feature_vif_scale1_score": 0.9454117221917705, 
            "VMAF_feature_vif_scale2_score": 0.9756524906474153, 
            "VMAF_feature_vif_scale3_score": 0.9872729176623772, 
            "VMAF_score": 100.0
        }, 
        {
            "frameNum": 37, 
            "VMAF_feature_adm2_score": 0.9779533867585374, 
            "VMAF_feature_motion2_score": 11.509613, 
            "VMAF_feature_vif_scale0_score": 0.6092019170321391, 
            "VMAF_feature_vif_scale1_score": 0.9308827375791136, 
            "VMAF_feature_vif_scale2_score": 0.9665802090273841, 
            "VMAF_feature_vif_scale3_score": 0.9814958657096123, 
            "VMAF_score": 100.0
        }, 
        {
            "frameNum": 38, 
            "VMAF_feature_adm2_score": 0.9797827391029817, 
            "VMAF_feature_motion2_score": 11.271609, 
            "VMAF_feature_vif_scale0_score": 0.6168211536349637, 
            "VMAF_feature_vif_scale1_score": 0.9375888842534881, 
            "VMAF_feature_vif_scale2_score": 0.9706790159058464, 
            "VMAF_feature_vif_scale3_score": 0.9841404937998516, 
            "VMAF_score": 100.0
        }, 
        {
            "frameNum": 39, 
            "VMAF_feature_adm2_score": 0.9780432358686397, 
            "VMAF_feature_motion2_score": 11.106547, 
            "VMAF_feature_vif_scale0_score": 0.6092535578773315, 
            "VMAF_feature_vif_scale1_score": 0.9320521325914325, 
            "VMAF_feature_vif_scale2_score": 0.9670001413396097, 
            "VMAF_feature_vif_scale3_score": 0.98152221599002, 
            "VMAF_score": 100.0
        }, 
        {
            "frameNum": 40, 
            "VMAF_feature_adm2_score": 0.9810699049027046, 
            "VMAF_feature_motion2_score": 10.954433, 
            "VMAF_feature_vif_scale0_score": 0.6044148347683871, 
            "VMAF_feature_vif_scale1_score": 0.9454116232190454, 
            "VMAF_feature_vif_scale2_score": 0.97547058232937, 
            "VMAF_feature_vif_scale3_score": 0.9867268158301654, 
            "VMAF_score": 100.0
        }, 
        {
            "frameNum": 41, 
            "VMAF_feature_adm2_score": 0.9795720858276682, 
            "VMAF_feature_motion2_score": 10.789167, 
            "VMAF_feature_vif_scale0_score": 0.6171051136504817, 
            "VMAF_feature_vif_scale1_score": 0.9350624294509812, 
            "VMAF_feature_vif_scale2_score": 0.9688525995555999, 
            "VMAF_feature_vif_scale3_score": 0.9822459863358395, 
            "VMAF_score": 100.0
        }, 
        {
            "frameNum": 42, 
            "VMAF_feature_adm2_score": 0.98091166058367, 
            "VMAF_feature_motion2_score": 10.381506, 
            "VMAF_feature_vif_scale0_score": 0.6228866288065045, 
            "VMAF_feature_vif_scale1_score": 0.9408377317382758, 
            "VMAF_feature_vif_scale2_score": 0.9722208921082569, 
            "VMAF_feature_vif_scale3_score": 0.9848300991592378, 
            "VMAF_score": 100.0
        }, 
        {
            "frameNum": 43, 
            "VMAF_feature_adm2_score": 0.9796237673069758, 
            "VMAF_feature_motion2_score": 9.965686, 
            "VMAF_feature_vif_scale0_score": 0.6103953406952624, 
            "VMAF_feature_vif_scale1_score": 0.9344381498460874, 
            "VMAF_feature_vif_scale2_score": 0.9686981337134701, 
            "VMAF_feature_vif_scale3_score": 0.9828694155018609, 
            "VMAF_score": 100.0
        }, 
        {
            "frameNum": 44, 
            "VMAF_feature_adm2_score": 0.9812965464857609, 
            "VMAF_feature_motion2_score": 9.965686, 
            "VMAF_feature_vif_scale0_score": 0.6068300244074926, 
            "VMAF_feature_vif_scale1_score": 0.9467463799071456, 
            "VMAF_feature_vif_scale2_score": 0.9763332943422536, 
            "VMAF_feature_vif_scale3_score": 0.9874901709331215, 
            "VMAF_score": 100.0
        }, 
        {
            "frameNum": 45, 
            "VMAF_feature_adm2_score": 0.9790146683971452, 
            "VMAF_feature_motion2_score": 9.73464, 
            "VMAF_feature_vif_scale0_score": 0.6086656302841362, 
            "VMAF_feature_vif_scale1_score": 0.9314982727015078, 
            "VMAF_feature_vif_scale2_score": 0.9670630284217054, 
            "VMAF_feature_vif_scale3_score": 0.9817410086493789, 
            "VMAF_score": 100.0
        }, 
        {
            "frameNum": 46, 
            "VMAF_feature_adm2_score": 0.9781466018115065, 
            "VMAF_feature_motion2_score": 8.860352, 
            "VMAF_feature_vif_scale0_score": 0.6024402937800208, 
            "VMAF_feature_vif_scale1_score": 0.9307108647753897, 
            "VMAF_feature_vif_scale2_score": 0.9669056801407307, 
            "VMAF_feature_vif_scale3_score": 0.981873351848076, 
            "VMAF_score": 100.0
        }, 
        {
            "frameNum": 47, 
            "VMAF_feature_adm2_score": 0.9751372824127378, 
            "VMAF_feature_motion2_score": 7.886562, 
            "VMAF_feature_vif_scale0_score": 0.5915550925411784, 
            "VMAF_feature_vif_scale1_score": 0.9232409121179972, 
            "VMAF_feature_vif_scale2_score": 0.9624131991043637, 
            "VMAF_feature_vif_scale3_score": 0.9792079819167875, 
            "VMAF_score": 98.15334783562393
        }, 
        {
            "frameNum": 48, 
            "VMAF_feature_adm2_score": 0.9766251559255728, 
            "VMAF_feature_motion2_score": 7.223266, 
            "VMAF_feature_vif_scale0_score": 0.5816307865360137, 
            "VMAF_feature_vif_scale1_score": 0.9330335216838893, 
            "VMAF_feature_vif_scale2_score": 0.9684394578950425, 
            "VMAF_feature_vif_scale3_score": 0.9829129518656591, 
            "VMAF_score": 98.3035549143703
        }, 
        {
            "frameNum": 49, 
            "VMAF_feature_adm2_score": 0.9774628047700672, 
            "VMAF_feature_motion2_score": 6.738306, 
            "VMAF_feature_vif_scale0_score": 0.6011933964115621, 
            "VMAF_feature_vif_scale1_score": 0.9296051463551948, 
            "VMAF_feature_vif_scale2_score": 0.9660831440151203, 
            "VMAF_feature_vif_scale3_score": 0.9809263984720752, 
            "VMAF_score": 97.66632953041368
        }, 
        {
            "frameNum": 50, 
            "VMAF_feature_adm2_score": 0.9754416904611499, 
            "VMAF_feature_motion2_score": 6.23264, 
            "VMAF_feature_vif_scale0_score": 0.5932111127937258, 
            "VMAF_feature_vif_scale1_score": 0.9251723699493997, 
            "VMAF_feature_vif_scale2_score": 0.9633418805054312, 
            "VMAF_feature_vif_scale3_score": 0.9802569514512742, 
            "VMAF_score": 96.45938335226337
        }, 
        {
            "frameNum": 51, 
            "VMAF_feature_adm2_score": 0.9747578616002698, 
            "VMAF_feature_motion2_score": 6.23264, 
            "VMAF_feature_vif_scale0_score": 0.5905382306995515, 
            "VMAF_feature_vif_scale1_score": 0.923112296980606, 
            "VMAF_feature_vif_scale2_score": 0.9621461222981584, 
            "VMAF_feature_vif_scale3_score": 0.9790266913035848, 
            "VMAF_score": 96.15686840987875
        }, 
        {
            "frameNum": 52, 
            "VMAF_feature_adm2_score": 0.9763948285641887, 
            "VMAF_feature_motion2_score": 6.237578, 
            "VMAF_feature_vif_scale0_score": 0.5841489994927501, 
            "VMAF_feature_vif_scale1_score": 0.9341560469143673, 
            "VMAF_feature_vif_scale2_score": 0.9691294371060055, 
            "VMAF_feature_vif_scale3_score": 0.9837580162135197, 
            "VMAF_score": 97.22472288635254
        }, 
        {
            "frameNum": 53, 
            "VMAF_feature_adm2_score": 0.9751668303394768, 
            "VMAF_feature_motion2_score": 6.57104, 
            "VMAF_feature_vif_scale0_score": 0.593179443105525, 
            "VMAF_feature_vif_scale1_score": 0.9238337706806569, 
            "VMAF_feature_vif_scale2_score": 0.9617980604039884, 
            "VMAF_feature_vif_scale3_score": 0.9787325428370216, 
            "VMAF_score": 96.59995332166307
        }, 
        {
            "frameNum": 54, 
            "VMAF_feature_adm2_score": 0.9781767572243814, 
            "VMAF_feature_motion2_score": 6.825758, 
            "VMAF_feature_vif_scale0_score": 0.6008628722129931, 
            "VMAF_feature_vif_scale1_score": 0.9351253692215323, 
            "VMAF_feature_vif_scale2_score": 0.969332233249759, 
            "VMAF_feature_vif_scale3_score": 0.9832346105390881, 
            "VMAF_score": 98.26210647364874
        }, 
        {
            "frameNum": 55, 
            "VMAF_feature_adm2_score": 0.9771770633561214, 
            "VMAF_feature_motion2_score": 7.126525, 
            "VMAF_feature_vif_scale0_score": 0.6017665696464989, 
            "VMAF_feature_vif_scale1_score": 0.9295069793723704, 
            "VMAF_feature_vif_scale2_score": 0.9655852582292334, 
            "VMAF_feature_vif_scale3_score": 0.9809635915869903, 
            "VMAF_score": 98.03132908083876
        }, 
        {
            "frameNum": 56, 
            "VMAF_feature_adm2_score": 0.9768050201949137, 
            "VMAF_feature_motion2_score": 6.289873, 
            "VMAF_feature_vif_scale0_score": 0.5860078619628426, 
            "VMAF_feature_vif_scale1_score": 0.9373288871051393, 
            "VMAF_feature_vif_scale2_score": 0.9708801424736813, 
            "VMAF_feature_vif_scale3_score": 0.9847635375336998, 
            "VMAF_score": 97.53956575164028
        }, 
        {
            "frameNum": 57, 
            "VMAF_feature_adm2_score": 0.9736011669498479, 
            "VMAF_feature_motion2_score": 5.786358, 
            "VMAF_feature_vif_scale0_score": 0.5935461372730911, 
            "VMAF_feature_vif_scale1_score": 0.9224802398055796, 
            "VMAF_feature_vif_scale2_score": 0.9616871192693146, 
            "VMAF_feature_vif_scale3_score": 0.978690253118218, 
            "VMAF_score": 95.33919708962165
        }, 
        {
            "frameNum": 58, 
            "VMAF_feature_adm2_score": 0.9766991042775752, 
            "VMAF_feature_motion2_score": 4.806984, 
            "VMAF_feature_vif_scale0_score": 0.6037467474564503, 
            "VMAF_feature_vif_scale1_score": 0.9323615267245623, 
            "VMAF_feature_vif_scale2_score": 0.9679443627916817, 
            "VMAF_feature_vif_scale3_score": 0.9821953251217936, 
            "VMAF_score": 95.42615720877467
        }, 
        {
            "frameNum": 59, 
            "VMAF_feature_adm2_score": 0.9753390838190102, 
            "VMAF_feature_motion2_score": 4.539765, 
            "VMAF_feature_vif_scale0_score": 0.5953086842157512, 
            "VMAF_feature_vif_scale1_score": 0.9241813047011692, 
            "VMAF_feature_vif_scale2_score": 0.9628018280754189, 
            "VMAF_feature_vif_scale3_score": 0.9789772037183909, 
            "VMAF_score": 94.31731695530976
        }, 
        {
            "frameNum": 60, 
            "VMAF_feature_adm2_score": 0.9770013273544647, 
            "VMAF_feature_motion2_score": 4.407828, 
            "VMAF_feature_vif_scale0_score": 0.586156705010168, 
            "VMAF_feature_vif_scale1_score": 0.937139893185712, 
            "VMAF_feature_vif_scale2_score": 0.9708639410166703, 
            "VMAF_feature_vif_scale3_score": 0.9839229222185988, 
            "VMAF_score": 95.30126663781819
        }, 
        {
            "frameNum": 61, 
            "VMAF_feature_adm2_score": 0.9754604572881539, 
            "VMAF_feature_motion2_score": 4.233432, 
            "VMAF_feature_vif_scale0_score": 0.5986372910214698, 
            "VMAF_feature_vif_scale1_score": 0.9258338423367561, 
            "VMAF_feature_vif_scale2_score": 0.9631915332086475, 
            "VMAF_feature_vif_scale3_score": 0.979117622169051, 
            "VMAF_score": 94.00716822696374
        }, 
        {
            "frameNum": 62, 
            "VMAF_feature_adm2_score": 0.9804650725020931, 
            "VMAF_feature_motion2_score": 4.233432, 
            "VMAF_feature_vif_scale0_score": 0.6093973801496103, 
            "VMAF_feature_vif_scale1_score": 0.9362348706257658, 
            "VMAF_feature_vif_scale2_score": 0.9697024771041519, 
            "VMAF_feature_vif_scale3_score": 0.9830637903916565, 
            "VMAF_score": 95.70858346916796
        }, 
        {
            "frameNum": 63, 
            "VMAF_feature_adm2_score": 0.9756087971980588, 
            "VMAF_feature_motion2_score": 4.210745, 
            "VMAF_feature_vif_scale0_score": 0.597687682238143, 
            "VMAF_feature_vif_scale1_score": 0.9274712948780581, 
            "VMAF_feature_vif_scale2_score": 0.9649911863717247, 
            "VMAF_feature_vif_scale3_score": 0.9802479648444723, 
            "VMAF_score": 94.18431763063548
        }, 
        {
            "frameNum": 64, 
            "VMAF_feature_adm2_score": 0.9785751494962294, 
            "VMAF_feature_motion2_score": 4.210745, 
            "VMAF_feature_vif_scale0_score": 0.5892690125695424, 
            "VMAF_feature_vif_scale1_score": 0.9383734282894451, 
            "VMAF_feature_vif_scale2_score": 0.9715348009950546, 
            "VMAF_feature_vif_scale3_score": 0.9848341837322175, 
            "VMAF_score": 95.50980978899615
        }, 
        {
            "frameNum": 65, 
            "VMAF_feature_adm2_score": 0.977458160596585, 
            "VMAF_feature_motion2_score": 4.724979, 
            "VMAF_feature_vif_scale0_score": 0.6046008297674945, 
            "VMAF_feature_vif_scale1_score": 0.9294786311203979, 
            "VMAF_feature_vif_scale2_score": 0.9657732003235844, 
            "VMAF_feature_vif_scale3_score": 0.9810769483494796, 
            "VMAF_score": 95.30141320994863
        }, 
        {
            "frameNum": 66, 
            "VMAF_feature_adm2_score": 0.9800651881662404, 
            "VMAF_feature_motion2_score": 5.150024, 
            "VMAF_feature_vif_scale0_score": 0.6140091006633535, 
            "VMAF_feature_vif_scale1_score": 0.9386385820372688, 
            "VMAF_feature_vif_scale2_score": 0.9713582208951534, 
            "VMAF_feature_vif_scale3_score": 0.9846906163267083, 
            "VMAF_score": 96.92702068190111
        }, 
        {
            "frameNum": 67, 
            "VMAF_feature_adm2_score": 0.976132551677961, 
            "VMAF_feature_motion2_score": 5.767583, 
            "VMAF_feature_vif_scale0_score": 0.5989146941790601, 
            "VMAF_feature_vif_scale1_score": 0.9278515265229866, 
            "VMAF_feature_vif_scale2_score": 0.9650944176176813, 
            "VMAF_feature_vif_scale3_score": 0.9809907937098981, 
            "VMAF_score": 96.20789246291928
        }, 
        {
            "frameNum": 68, 
            "VMAF_feature_adm2_score": 0.978794613762229, 
            "VMAF_feature_motion2_score": 5.676583, 
            "VMAF_feature_vif_scale0_score": 0.5910030807371642, 
            "VMAF_feature_vif_scale1_score": 0.9394389723613913, 
            "VMAF_feature_vif_scale2_score": 0.9721943474299515, 
            "VMAF_feature_vif_scale3_score": 0.9852156346570934, 
            "VMAF_score": 97.35651919556183
        }, 
        {
            "frameNum": 69, 
            "VMAF_feature_adm2_score": 0.9770076790598402, 
            "VMAF_feature_motion2_score": 5.450995, 
            "VMAF_feature_vif_scale0_score": 0.6001969417334001, 
            "VMAF_feature_vif_scale1_score": 0.9261066148651198, 
            "VMAF_feature_vif_scale2_score": 0.9639336271066488, 
            "VMAF_feature_vif_scale3_score": 0.9803848189533944, 
            "VMAF_score": 95.92246803752869
        }, 
        {
            "frameNum": 70, 
            "VMAF_feature_adm2_score": 0.9784210201912141, 
            "VMAF_feature_motion2_score": 5.275325, 
            "VMAF_feature_vif_scale0_score": 0.6077102029070256, 
            "VMAF_feature_vif_scale1_score": 0.9348193912101835, 
            "VMAF_feature_vif_scale2_score": 0.969210618954093, 
            "VMAF_feature_vif_scale3_score": 0.9834114045043797, 
            "VMAF_score": 96.51335758935386
        }, 
        {
            "frameNum": 71, 
            "VMAF_feature_adm2_score": 0.9764621516034865, 
            "VMAF_feature_motion2_score": 5.275325, 
            "VMAF_feature_vif_scale0_score": 0.5986318882561892, 
            "VMAF_feature_vif_scale1_score": 0.9281757364037843, 
            "VMAF_feature_vif_scale2_score": 0.9653503795969816, 
            "VMAF_feature_vif_scale3_score": 0.980635515948472, 
            "VMAF_score": 95.68410263121763
        }, 
        {
            "frameNum": 72, 
            "VMAF_feature_adm2_score": 0.9781705888047072, 
            "VMAF_feature_motion2_score": 5.587901, 
            "VMAF_feature_vif_scale0_score": 0.5909037744440649, 
            "VMAF_feature_vif_scale1_score": 0.9386710258295733, 
            "VMAF_feature_vif_scale2_score": 0.9718375772954816, 
            "VMAF_feature_vif_scale3_score": 0.9847169975705866, 
            "VMAF_score": 97.05965793082639
        }, 
        {
            "frameNum": 73, 
            "VMAF_feature_adm2_score": 0.9772752340269018, 
            "VMAF_feature_motion2_score": 6.074217, 
            "VMAF_feature_vif_scale0_score": 0.6037190667894071, 
            "VMAF_feature_vif_scale1_score": 0.9309564110475804, 
            "VMAF_feature_vif_scale2_score": 0.9663594342256431, 
            "VMAF_feature_vif_scale3_score": 0.981280124262348, 
            "VMAF_score": 96.89988127537835
        }, 
        {
            "frameNum": 74, 
            "VMAF_feature_adm2_score": 0.9793201845265542, 
            "VMAF_feature_motion2_score": 6.089378, 
            "VMAF_feature_vif_scale0_score": 0.6107340579684191, 
            "VMAF_feature_vif_scale1_score": 0.9367906940065752, 
            "VMAF_feature_vif_scale2_score": 0.970395721044342, 
            "VMAF_feature_vif_scale3_score": 0.9840759705000193, 
            "VMAF_score": 97.77663293125998
        }, 
        {
            "frameNum": 75, 
            "VMAF_feature_adm2_score": 0.9765995916712885, 
            "VMAF_feature_motion2_score": 6.717056, 
            "VMAF_feature_vif_scale0_score": 0.5958092559188018, 
            "VMAF_feature_vif_scale1_score": 0.9272376551602802, 
            "VMAF_feature_vif_scale2_score": 0.9647153048449122, 
            "VMAF_feature_vif_scale3_score": 0.9804622861157399, 
            "VMAF_score": 97.35104874493506
        }, 
        {
            "frameNum": 76, 
            "VMAF_feature_adm2_score": 0.9786205735725455, 
            "VMAF_feature_motion2_score": 6.717056, 
            "VMAF_feature_vif_scale0_score": 0.5953629711870593, 
            "VMAF_feature_vif_scale1_score": 0.9410715116254487, 
            "VMAF_feature_vif_scale2_score": 0.9729162156551241, 
            "VMAF_feature_vif_scale3_score": 0.9853564321562219, 
            "VMAF_score": 98.57498040879256
        }, 
        {
            "frameNum": 77, 
            "VMAF_feature_adm2_score": 0.9775964732788427, 
            "VMAF_feature_motion2_score": 6.781263, 
            "VMAF_feature_vif_scale0_score": 0.6027173976063134, 
            "VMAF_feature_vif_scale1_score": 0.9286511601888713, 
            "VMAF_feature_vif_scale2_score": 0.9654146865348665, 
            "VMAF_feature_vif_scale3_score": 0.9806554955457434, 
            "VMAF_score": 97.69210258735535
        }, 
        {
            "frameNum": 78, 
            "VMAF_feature_adm2_score": 0.9800676544447154, 
            "VMAF_feature_motion2_score": 6.424338, 
            "VMAF_feature_vif_scale0_score": 0.6116004465156286, 
            "VMAF_feature_vif_scale1_score": 0.9358037131354903, 
            "VMAF_feature_vif_scale2_score": 0.9699083278139885, 
            "VMAF_feature_vif_scale3_score": 0.9835660691965492, 
            "VMAF_score": 98.26471527805906
        }, 
        {
            "frameNum": 79, 
            "VMAF_feature_adm2_score": 0.9761097284904696, 
            "VMAF_feature_motion2_score": 6.424338, 
            "VMAF_feature_vif_scale0_score": 0.6006186696251455, 
            "VMAF_feature_vif_scale1_score": 0.9282484582657292, 
            "VMAF_feature_vif_scale2_score": 0.9655749765964386, 
            "VMAF_feature_vif_scale3_score": 0.9809023238939825, 
            "VMAF_score": 96.98274528756687
        }, 
        {
            "frameNum": 80, 
            "VMAF_feature_adm2_score": 0.9784250698134319, 
            "VMAF_feature_motion2_score": 6.442567, 
            "VMAF_feature_vif_scale0_score": 0.5945190936967363, 
            "VMAF_feature_vif_scale1_score": 0.9407987942407112, 
            "VMAF_feature_vif_scale2_score": 0.9731418363586342, 
            "VMAF_feature_vif_scale3_score": 0.9853481254609789, 
            "VMAF_score": 98.22406411260039
        }, 
        {
            "frameNum": 81, 
            "VMAF_feature_adm2_score": 0.9765437936617224, 
            "VMAF_feature_motion2_score": 6.442567, 
            "VMAF_feature_vif_scale0_score": 0.5981788227301017, 
            "VMAF_feature_vif_scale1_score": 0.9260682755176723, 
            "VMAF_feature_vif_scale2_score": 0.9641574393332861, 
            "VMAF_feature_vif_scale3_score": 0.9798205174789467, 
            "VMAF_score": 96.94447557013581
        }, 
        {
            "frameNum": 82, 
            "VMAF_feature_adm2_score": 0.9762358589256805, 
            "VMAF_feature_motion2_score": 6.294423, 
            "VMAF_feature_vif_scale0_score": 0.6024489223568673, 
            "VMAF_feature_vif_scale1_score": 0.9297424907966065, 
            "VMAF_feature_vif_scale2_score": 0.9661836208892163, 
            "VMAF_feature_vif_scale3_score": 0.9809922087463067, 
            "VMAF_score": 96.89709874761822
        }, 
        {
            "frameNum": 83, 
            "VMAF_feature_adm2_score": 0.9782514401730705, 
            "VMAF_feature_motion2_score": 5.749735, 
            "VMAF_feature_vif_scale0_score": 0.60221456396615, 
            "VMAF_feature_vif_scale1_score": 0.9318269684940267, 
            "VMAF_feature_vif_scale2_score": 0.9674521131128117, 
            "VMAF_feature_vif_scale3_score": 0.9823499265988801, 
            "VMAF_score": 96.86688839804829
        }, 
        {
            "frameNum": 84, 
            "VMAF_feature_adm2_score": 0.9773379695432992, 
            "VMAF_feature_motion2_score": 5.477309, 
            "VMAF_feature_vif_scale0_score": 0.5888485821265597, 
            "VMAF_feature_vif_scale1_score": 0.9358206697271303, 
            "VMAF_feature_vif_scale2_score": 0.9699534020207015, 
            "VMAF_feature_vif_scale3_score": 0.9839515211125627, 
            "VMAF_score": 96.59838963964256
        }, 
        {
            "frameNum": 85, 
            "VMAF_feature_adm2_score": 0.9762351179818108, 
            "VMAF_feature_motion2_score": 5.055166, 
            "VMAF_feature_vif_scale0_score": 0.602342603184619, 
            "VMAF_feature_vif_scale1_score": 0.930925686376777, 
            "VMAF_feature_vif_scale2_score": 0.9670610905808484, 
            "VMAF_feature_vif_scale3_score": 0.9818546959662052, 
            "VMAF_score": 95.55187627402549
        }, 
        {
            "frameNum": 86, 
            "VMAF_feature_adm2_score": 0.9773695803962671, 
            "VMAF_feature_motion2_score": 4.889714, 
            "VMAF_feature_vif_scale0_score": 0.6076341425240347, 
            "VMAF_feature_vif_scale1_score": 0.9322203626558672, 
            "VMAF_feature_vif_scale2_score": 0.9671473578573402, 
            "VMAF_feature_vif_scale3_score": 0.9813549047368949, 
            "VMAF_score": 95.5666996693304
        }, 
        {
            "frameNum": 87, 
            "VMAF_feature_adm2_score": 0.9767645733883363, 
            "VMAF_feature_motion2_score": 4.889714, 
            "VMAF_feature_vif_scale0_score": 0.6047684866400113, 
            "VMAF_feature_vif_scale1_score": 0.9306330540719883, 
            "VMAF_feature_vif_scale2_score": 0.9661936876508496, 
            "VMAF_feature_vif_scale3_score": 0.9808012834490436, 
            "VMAF_score": 95.3468634794381
        }, 
        {
            "frameNum": 88, 
            "VMAF_feature_adm2_score": 0.980720954566949, 
            "VMAF_feature_motion2_score": 5.331959, 
            "VMAF_feature_vif_scale0_score": 0.6068200754974917, 
            "VMAF_feature_vif_scale1_score": 0.9460505089532031, 
            "VMAF_feature_vif_scale2_score": 0.9758191783955916, 
            "VMAF_feature_vif_scale3_score": 0.9868616693779613, 
            "VMAF_score": 97.67762956206698
        }, 
        {
            "frameNum": 89, 
            "VMAF_feature_adm2_score": 0.9807980829975417, 
            "VMAF_feature_motion2_score": 5.296281, 
            "VMAF_feature_vif_scale0_score": 0.6246415856895216, 
            "VMAF_feature_vif_scale1_score": 0.9403523171308603, 
            "VMAF_feature_vif_scale2_score": 0.9718678249730713, 
            "VMAF_feature_vif_scale3_score": 0.9846562371853415, 
            "VMAF_score": 97.28381204810707
        }, 
        {
            "frameNum": 90, 
            "VMAF_feature_adm2_score": 0.9806063417736691, 
            "VMAF_feature_motion2_score": 4.77664, 
            "VMAF_feature_vif_scale0_score": 0.6233386123119359, 
            "VMAF_feature_vif_scale1_score": 0.9398764909042199, 
            "VMAF_feature_vif_scale2_score": 0.9714066516625992, 
            "VMAF_feature_vif_scale3_score": 0.9842869874284067, 
            "VMAF_score": 96.57038706614085
        }, 
        {
            "frameNum": 91, 
            "VMAF_feature_adm2_score": 0.9781374386251113, 
            "VMAF_feature_motion2_score": 4.77664, 
            "VMAF_feature_vif_scale0_score": 0.611887928310345, 
            "VMAF_feature_vif_scale1_score": 0.9321276441674452, 
            "VMAF_feature_vif_scale2_score": 0.9672751179580197, 
            "VMAF_feature_vif_scale3_score": 0.982028375834089, 
            "VMAF_score": 95.65577707703473
        }, 
        {
            "frameNum": 92, 
            "VMAF_feature_adm2_score": 0.9814824940569332, 
            "VMAF_feature_motion2_score": 4.929784, 
            "VMAF_feature_vif_scale0_score": 0.6107203307367973, 
            "VMAF_feature_vif_scale1_score": 0.9468189332211924, 
            "VMAF_feature_vif_scale2_score": 0.9761660903821499, 
            "VMAF_feature_vif_scale3_score": 0.9872737705025404, 
            "VMAF_score": 97.4150480022697
        }, 
        {
            "frameNum": 93, 
            "VMAF_feature_adm2_score": 0.9800323225420147, 
            "VMAF_feature_motion2_score": 4.874124, 
            "VMAF_feature_vif_scale0_score": 0.6258441261138805, 
            "VMAF_feature_vif_scale1_score": 0.9390856627446321, 
            "VMAF_feature_vif_scale2_score": 0.9710135736203701, 
            "VMAF_feature_vif_scale3_score": 0.9844312080836434, 
            "VMAF_score": 96.55424244206351
        }, 
        {
            "frameNum": 94, 
            "VMAF_feature_adm2_score": 0.9796806984227839, 
            "VMAF_feature_motion2_score": 4.448133, 
            "VMAF_feature_vif_scale0_score": 0.6203624511911398, 
            "VMAF_feature_vif_scale1_score": 0.9387939946150616, 
            "VMAF_feature_vif_scale2_score": 0.971442319684128, 
            "VMAF_feature_vif_scale3_score": 0.9847961696221421, 
            "VMAF_score": 96.01450347660376
        }, 
        {
            "frameNum": 95, 
            "VMAF_feature_adm2_score": 0.9776109898209873, 
            "VMAF_feature_motion2_score": 4.196647, 
            "VMAF_feature_vif_scale0_score": 0.6082583850146738, 
            "VMAF_feature_vif_scale1_score": 0.9291287700666842, 
            "VMAF_feature_vif_scale2_score": 0.9658601956772135, 
            "VMAF_feature_vif_scale3_score": 0.9812582817943373, 
            "VMAF_score": 94.71675283016539
        }, 
        {
            "frameNum": 96, 
            "VMAF_feature_adm2_score": 0.9781897952857301, 
            "VMAF_feature_motion2_score": 4.196647, 
            "VMAF_feature_vif_scale0_score": 0.596047842107288, 
            "VMAF_feature_vif_scale1_score": 0.93795746975054, 
            "VMAF_feature_vif_scale2_score": 0.9707894399437893, 
            "VMAF_feature_vif_scale3_score": 0.9840304072173023, 
            "VMAF_score": 95.30774155705191
        }, 
        {
            "frameNum": 97, 
            "VMAF_feature_adm2_score": 0.9795002547635877, 
            "VMAF_feature_motion2_score": 3.759895, 
            "VMAF_feature_vif_scale0_score": 0.6143343693307945, 
            "VMAF_feature_vif_scale1_score": 0.9354365320722442, 
            "VMAF_feature_vif_scale2_score": 0.9693360407823616, 
            "VMAF_feature_vif_scale3_score": 0.9828494098218084, 
            "VMAF_score": 94.88868483879536
        }, 
        {
            "frameNum": 98, 
            "VMAF_feature_adm2_score": 0.9766072292066464, 
            "VMAF_feature_motion2_score": 3.561887, 
            "VMAF_feature_vif_scale0_score": 0.5952897504940227, 
            "VMAF_feature_vif_scale1_score": 0.9256565717785222, 
            "VMAF_feature_vif_scale2_score": 0.9630245590446864, 
            "VMAF_feature_vif_scale3_score": 0.9789771706360453, 
            "VMAF_score": 93.42891764885167
        }, 
        {
            "frameNum": 99, 
            "VMAF_feature_adm2_score": 0.9777780519298055, 
            "VMAF_feature_motion2_score": 3.354603, 
            "VMAF_feature_vif_scale0_score": 0.6029915391259462, 
            "VMAF_feature_vif_scale1_score": 0.9313659279095003, 
            "VMAF_feature_vif_scale2_score": 0.9667239238991838, 
            "VMAF_feature_vif_scale3_score": 0.9814944767539926, 
            "VMAF_score": 93.79860189871377
        }, 
        {
            "frameNum": 100, 
            "VMAF_feature_adm2_score": 0.979061566501698, 
            "VMAF_feature_motion2_score": 3.212869, 
            "VMAF_feature_vif_scale0_score": 0.5977242160014292, 
            "VMAF_feature_vif_scale1_score": 0.9389832004223108, 
            "VMAF_feature_vif_scale2_score": 0.9719071637512195, 
            "VMAF_feature_vif_scale3_score": 0.9852448079673647, 
            "VMAF_score": 94.45306269312726
        }, 
        {
            "frameNum": 101, 
            "VMAF_feature_adm2_score": 0.978509792549004, 
            "VMAF_feature_motion2_score": 3.118349, 
            "VMAF_feature_vif_scale0_score": 0.606791012866229, 
            "VMAF_feature_vif_scale1_score": 0.9283425227008134, 
            "VMAF_feature_vif_scale2_score": 0.9647609659931, 
            "VMAF_feature_vif_scale3_score": 0.9806428433011729, 
            "VMAF_score": 93.50463334170232
        }, 
        {
            "frameNum": 102, 
            "VMAF_feature_adm2_score": 0.977003677458754, 
            "VMAF_feature_motion2_score": 2.911435, 
            "VMAF_feature_vif_scale0_score": 0.6026340651003691, 
            "VMAF_feature_vif_scale1_score": 0.9266199399840053, 
            "VMAF_feature_vif_scale2_score": 0.9639677701256755, 
            "VMAF_feature_vif_scale3_score": 0.980136033654829, 
            "VMAF_score": 92.8511698163124
        }, 
        {
            "frameNum": 103, 
            "VMAF_feature_adm2_score": 0.9779602375197032, 
            "VMAF_feature_motion2_score": 2.911435, 
            "VMAF_feature_vif_scale0_score": 0.6107071174460632, 
            "VMAF_feature_vif_scale1_score": 0.9302218134903173, 
            "VMAF_feature_vif_scale2_score": 0.966131258503241, 
            "VMAF_feature_vif_scale3_score": 0.981512500131947, 
            "VMAF_score": 93.2623042119247
        }, 
        {
            "frameNum": 104, 
            "VMAF_feature_adm2_score": 0.9771337525871594, 
            "VMAF_feature_motion2_score": 2.98059, 
            "VMAF_feature_vif_scale0_score": 0.5956154948307029, 
            "VMAF_feature_vif_scale1_score": 0.9357865348773504, 
            "VMAF_feature_vif_scale2_score": 0.9696005170562866, 
            "VMAF_feature_vif_scale3_score": 0.9831247268449604, 
            "VMAF_score": 93.47626609188028
        }, 
        {
            "frameNum": 105, 
            "VMAF_feature_adm2_score": 0.9772062059048585, 
            "VMAF_feature_motion2_score": 2.878405, 
            "VMAF_feature_vif_scale0_score": 0.6133547160543142, 
            "VMAF_feature_vif_scale1_score": 0.9293414632394167, 
            "VMAF_feature_vif_scale2_score": 0.9653590459502236, 
            "VMAF_feature_vif_scale3_score": 0.9803538189698988, 
            "VMAF_score": 92.92861787420637
        }, 
        {
            "frameNum": 106, 
            "VMAF_feature_adm2_score": 0.9775626964258093, 
            "VMAF_feature_motion2_score": 2.661876, 
            "VMAF_feature_vif_scale0_score": 0.6126448025307916, 
            "VMAF_feature_vif_scale1_score": 0.9346084335475189, 
            "VMAF_feature_vif_scale2_score": 0.969058824111045, 
            "VMAF_feature_vif_scale3_score": 0.9837567619252854, 
            "VMAF_score": 93.18507108346542
        }, 
        {
            "frameNum": 107, 
            "VMAF_feature_adm2_score": 0.9793693494076479, 
            "VMAF_feature_motion2_score": 2.64092, 
            "VMAF_feature_vif_scale0_score": 0.6195864886510302, 
            "VMAF_feature_vif_scale1_score": 0.9374067204620699, 
            "VMAF_feature_vif_scale2_score": 0.9702628844189934, 
            "VMAF_feature_vif_scale3_score": 0.9840060792575859, 
            "VMAF_score": 93.62311336121253
        }, 
        {
            "frameNum": 108, 
            "VMAF_feature_adm2_score": 0.9767169260440711, 
            "VMAF_feature_motion2_score": 2.64092, 
            "VMAF_feature_vif_scale0_score": 0.6014514876171434, 
            "VMAF_feature_vif_scale1_score": 0.9390328819203784, 
            "VMAF_feature_vif_scale2_score": 0.9717850967601092, 
            "VMAF_feature_vif_scale3_score": 0.985547587945888, 
            "VMAF_score": 93.26148966793906
        }, 
        {
            "frameNum": 109, 
            "VMAF_feature_adm2_score": 0.97735584036721, 
            "VMAF_feature_motion2_score": 2.709856, 
            "VMAF_feature_vif_scale0_score": 0.6185204173394814, 
            "VMAF_feature_vif_scale1_score": 0.9337875677986237, 
            "VMAF_feature_vif_scale2_score": 0.9676254438142149, 
            "VMAF_feature_vif_scale3_score": 0.9823348404746736, 
            "VMAF_score": 93.01621915652017
        }, 
        {
            "frameNum": 110, 
            "VMAF_feature_adm2_score": 0.9789615947111205, 
            "VMAF_feature_motion2_score": 2.788262, 
            "VMAF_feature_vif_scale0_score": 0.6190942179111614, 
            "VMAF_feature_vif_scale1_score": 0.9378278161560658, 
            "VMAF_feature_vif_scale2_score": 0.9703811399977993, 
            "VMAF_feature_vif_scale3_score": 0.9838351835922582, 
            "VMAF_score": 93.71000421830539
        }, 
        {
            "frameNum": 111, 
            "VMAF_feature_adm2_score": 0.9794320776056739, 
            "VMAF_feature_motion2_score": 2.771758, 
            "VMAF_feature_vif_scale0_score": 0.6213135244512948, 
            "VMAF_feature_vif_scale1_score": 0.9361475126381065, 
            "VMAF_feature_vif_scale2_score": 0.9691703743707888, 
            "VMAF_feature_vif_scale3_score": 0.9832627211572064, 
            "VMAF_score": 93.68636187777126
        }, 
        {
            "frameNum": 112, 
            "VMAF_feature_adm2_score": 0.9784454745970809, 
            "VMAF_feature_motion2_score": 2.771758, 
            "VMAF_feature_vif_scale0_score": 0.6019783785349915, 
            "VMAF_feature_vif_scale1_score": 0.9393301803461037, 
            "VMAF_feature_vif_scale2_score": 0.9719048779711913, 
            "VMAF_feature_vif_scale3_score": 0.9849588614232354, 
            "VMAF_score": 93.75422860061241
        }, 
        {
            "frameNum": 113, 
            "VMAF_feature_adm2_score": 0.9763321113353565, 
            "VMAF_feature_motion2_score": 2.957415, 
            "VMAF_feature_vif_scale0_score": 0.607088376988822, 
            "VMAF_feature_vif_scale1_score": 0.9265653246987916, 
            "VMAF_feature_vif_scale2_score": 0.9637441919462028, 
            "VMAF_feature_vif_scale3_score": 0.9795670786016621, 
            "VMAF_score": 92.70330637640197
        }, 
        {
            "frameNum": 114, 
            "VMAF_feature_adm2_score": 0.9784908035717875, 
            "VMAF_feature_motion2_score": 3.19981, 
            "VMAF_feature_vif_scale0_score": 0.6138285950071181, 
            "VMAF_feature_vif_scale1_score": 0.9322375125106003, 
            "VMAF_feature_vif_scale2_score": 0.9672836223945511, 
            "VMAF_feature_vif_scale3_score": 0.9817971456796363, 
            "VMAF_score": 93.8057528195138
        }, 
        {
            "frameNum": 115, 
            "VMAF_feature_adm2_score": 0.9741263929299546, 
            "VMAF_feature_motion2_score": 3.175806, 
            "VMAF_feature_vif_scale0_score": 0.5951055976199858, 
            "VMAF_feature_vif_scale1_score": 0.9231634219777776, 
            "VMAF_feature_vif_scale2_score": 0.9618023075571434, 
            "VMAF_feature_vif_scale3_score": 0.9790366949958812, 
            "VMAF_score": 92.37139006469063
        }, 
        {
            "frameNum": 116, 
            "VMAF_feature_adm2_score": 0.9777282235632831, 
            "VMAF_feature_motion2_score": 2.844721, 
            "VMAF_feature_vif_scale0_score": 0.5966417809660286, 
            "VMAF_feature_vif_scale1_score": 0.9335773098622998, 
            "VMAF_feature_vif_scale2_score": 0.9687217081325102, 
            "VMAF_feature_vif_scale3_score": 0.9831611176254622, 
            "VMAF_score": 93.39627287884414
        }, 
        {
            "frameNum": 117, 
            "VMAF_feature_adm2_score": 0.9754865406539677, 
            "VMAF_feature_motion2_score": 2.756245, 
            "VMAF_feature_vif_scale0_score": 0.6109847278895696, 
            "VMAF_feature_vif_scale1_score": 0.9268443101789026, 
            "VMAF_feature_vif_scale2_score": 0.96408848523503, 
            "VMAF_feature_vif_scale3_score": 0.980632546703301, 
            "VMAF_score": 92.37053782506358
        }, 
        {
            "frameNum": 118, 
            "VMAF_feature_adm2_score": 0.9783452643015292, 
            "VMAF_feature_motion2_score": 2.189821, 
            "VMAF_feature_vif_scale0_score": 0.6027870346609404, 
            "VMAF_feature_vif_scale1_score": 0.9266324707017222, 
            "VMAF_feature_vif_scale2_score": 0.9640542596456634, 
            "VMAF_feature_vif_scale3_score": 0.9806098344138668, 
            "VMAF_score": 92.29387875702344
        }, 
        {
            "frameNum": 119, 
            "VMAF_feature_adm2_score": 0.9760883270927672, 
            "VMAF_feature_motion2_score": 2.189821, 
            "VMAF_feature_vif_scale0_score": 0.5943560175568706, 
            "VMAF_feature_vif_scale1_score": 0.9278046617536858, 
            "VMAF_feature_vif_scale2_score": 0.9650332989555972, 
            "VMAF_feature_vif_scale3_score": 0.9810780514621164, 
            "VMAF_score": 91.90006744187659
        }, 
        {
            "frameNum": 120, 
            "VMAF_feature_adm2_score": 0.9788963710372951, 
            "VMAF_feature_motion2_score": 2.135837, 
            "VMAF_feature_vif_scale0_score": 0.602763059515513, 
            "VMAF_feature_vif_scale1_score": 0.937666835127946, 
            "VMAF_feature_vif_scale2_score": 0.9708703817334924, 
            "VMAF_feature_vif_scale3_score": 0.9843417343057624, 
            "VMAF_score": 92.96748385502848
        }, 
        {
            "frameNum": 121, 
            "VMAF_feature_adm2_score": 0.9794538621540994, 
            "VMAF_feature_motion2_score": 2.135837, 
            "VMAF_feature_vif_scale0_score": 0.6044210062407406, 
            "VMAF_feature_vif_scale1_score": 0.9375351805283508, 
            "VMAF_feature_vif_scale2_score": 0.9711084067463156, 
            "VMAF_feature_vif_scale3_score": 0.9849136792924551, 
            "VMAF_score": 93.14153231495673
        }, 
        {
            "frameNum": 122, 
            "VMAF_feature_adm2_score": 0.9772785649286371, 
            "VMAF_feature_motion2_score": 2.211391, 
            "VMAF_feature_vif_scale0_score": 0.5991857578040203, 
            "VMAF_feature_vif_scale1_score": 0.9335634770371105, 
            "VMAF_feature_vif_scale2_score": 0.9689285547276778, 
            "VMAF_feature_vif_scale3_score": 0.9833083502840011, 
            "VMAF_score": 92.53820729104505
        }, 
        {
            "frameNum": 123, 
            "VMAF_feature_adm2_score": 0.9764211447752548, 
            "VMAF_feature_motion2_score": 2.123451, 
            "VMAF_feature_vif_scale0_score": 0.5981041325281077, 
            "VMAF_feature_vif_scale1_score": 0.9346010204506154, 
            "VMAF_feature_vif_scale2_score": 0.9697124297938936, 
            "VMAF_feature_vif_scale3_score": 0.9841112564624127, 
            "VMAF_score": 92.346699154328
        }, 
        {
            "frameNum": 124, 
            "VMAF_feature_adm2_score": 0.9743186765120588, 
            "VMAF_feature_motion2_score": 2.123451, 
            "VMAF_feature_vif_scale0_score": 0.6000745537538003, 
            "VMAF_feature_vif_scale1_score": 0.924026387799241, 
            "VMAF_feature_vif_scale2_score": 0.9626706298285954, 
            "VMAF_feature_vif_scale3_score": 0.9792400151628877, 
            "VMAF_score": 91.17302680387942
        }, 
        {
            "frameNum": 125, 
            "VMAF_feature_adm2_score": 0.977785389196628, 
            "VMAF_feature_motion2_score": 2.543279, 
            "VMAF_feature_vif_scale0_score": 0.612099039168262, 
            "VMAF_feature_vif_scale1_score": 0.9300768897874031, 
            "VMAF_feature_vif_scale2_score": 0.9661773700646826, 
            "VMAF_feature_vif_scale3_score": 0.9817394639824748, 
            "VMAF_score": 92.78978586692027
        }, 
        {
            "frameNum": 126, 
            "VMAF_feature_adm2_score": 0.9778262269337168, 
            "VMAF_feature_motion2_score": 2.333851, 
            "VMAF_feature_vif_scale0_score": 0.6101030652687393, 
            "VMAF_feature_vif_scale1_score": 0.929768906336457, 
            "VMAF_feature_vif_scale2_score": 0.965758170618663, 
            "VMAF_feature_vif_scale3_score": 0.9809464259953986, 
            "VMAF_score": 92.45996984182952
        }, 
        {
            "frameNum": 127, 
            "VMAF_feature_adm2_score": 0.977928538663487, 
            "VMAF_feature_motion2_score": 2.333851, 
            "VMAF_feature_vif_scale0_score": 0.60444216316889, 
            "VMAF_feature_vif_scale1_score": 0.9335574012010134, 
            "VMAF_feature_vif_scale2_score": 0.9689317410791201, 
            "VMAF_feature_vif_scale3_score": 0.9833119938929459, 
            "VMAF_score": 92.8240774213352
        }, 
        {
            "frameNum": 128, 
            "VMAF_feature_adm2_score": 0.9795921332046228, 
            "VMAF_feature_motion2_score": 2.407198, 
            "VMAF_feature_vif_scale0_score": 0.6172098784065235, 
            "VMAF_feature_vif_scale1_score": 0.933153487098214, 
            "VMAF_feature_vif_scale2_score": 0.9680695711825847, 
            "VMAF_feature_vif_scale3_score": 0.9828361676475192, 
            "VMAF_score": 93.18399722140876
        }, 
        {
            "frameNum": 129, 
            "VMAF_feature_adm2_score": 0.9796617383778851, 
            "VMAF_feature_motion2_score": 2.382946, 
            "VMAF_feature_vif_scale0_score": 0.6214041033491656, 
            "VMAF_feature_vif_scale1_score": 0.9350266556382638, 
            "VMAF_feature_vif_scale2_score": 0.9689742258229149, 
            "VMAF_feature_vif_scale3_score": 0.9834217850005673, 
            "VMAF_score": 93.25585318142977
        }, 
        {
            "frameNum": 130, 
            "VMAF_feature_adm2_score": 0.9788030403705816, 
            "VMAF_feature_motion2_score": 2.062143, 
            "VMAF_feature_vif_scale0_score": 0.6083258567585762, 
            "VMAF_feature_vif_scale1_score": 0.9363157214511061, 
            "VMAF_feature_vif_scale2_score": 0.9705073177289971, 
            "VMAF_feature_vif_scale3_score": 0.9843801436167876, 
            "VMAF_score": 92.83302102700794
        }, 
        {
            "frameNum": 131, 
            "VMAF_feature_adm2_score": 0.9797283004018073, 
            "VMAF_feature_motion2_score": 2.062143, 
            "VMAF_feature_vif_scale0_score": 0.613950512530472, 
            "VMAF_feature_vif_scale1_score": 0.9349096010217685, 
            "VMAF_feature_vif_scale2_score": 0.9690407293250044, 
            "VMAF_feature_vif_scale3_score": 0.9830219156142146, 
            "VMAF_score": 92.85041534766935
        }, 
        {
            "frameNum": 132, 
            "VMAF_feature_adm2_score": 0.9797835344271874, 
            "VMAF_feature_motion2_score": 2.077629, 
            "VMAF_feature_vif_scale0_score": 0.6143225771817922, 
            "VMAF_feature_vif_scale1_score": 0.9329231397384851, 
            "VMAF_feature_vif_scale2_score": 0.9672942259475531, 
            "VMAF_feature_vif_scale3_score": 0.9820654531070081, 
            "VMAF_score": 92.72380192258262
        }, 
        {
            "frameNum": 133, 
            "VMAF_feature_adm2_score": 0.9796573153967572, 
            "VMAF_feature_motion2_score": 2.476629, 
            "VMAF_feature_vif_scale0_score": 0.6051658389432504, 
            "VMAF_feature_vif_scale1_score": 0.9332716493322407, 
            "VMAF_feature_vif_scale2_score": 0.9682729082511162, 
            "VMAF_feature_vif_scale3_score": 0.9827117132710641, 
            "VMAF_score": 93.29554335893617
        }, 
        {
            "frameNum": 134, 
            "VMAF_feature_adm2_score": 0.9797349846723679, 
            "VMAF_feature_motion2_score": 3.470414, 
            "VMAF_feature_vif_scale0_score": 0.6257157566383984, 
            "VMAF_feature_vif_scale1_score": 0.9374824947444865, 
            "VMAF_feature_vif_scale2_score": 0.969402834224129, 
            "VMAF_feature_vif_scale3_score": 0.9829153088725435, 
            "VMAF_score": 94.5935547500806
        }, 
        {
            "frameNum": 135, 
            "VMAF_feature_adm2_score": 0.9759168792291266, 
            "VMAF_feature_motion2_score": 3.509733, 
            "VMAF_feature_vif_scale0_score": 0.6015593887540646, 
            "VMAF_feature_vif_scale1_score": 0.9250047197877957, 
            "VMAF_feature_vif_scale2_score": 0.9631921078527097, 
            "VMAF_feature_vif_scale3_score": 0.9797722406473146, 
            "VMAF_score": 93.28051924677742
        }, 
        {
            "frameNum": 136, 
            "VMAF_feature_adm2_score": 0.9775295548612247, 
            "VMAF_feature_motion2_score": 3.932455, 
            "VMAF_feature_vif_scale0_score": 0.6355819845798361, 
            "VMAF_feature_vif_scale1_score": 0.9269517132261654, 
            "VMAF_feature_vif_scale2_score": 0.9625599049675548, 
            "VMAF_feature_vif_scale3_score": 0.9788592495660307, 
            "VMAF_score": 94.02667238812812
        }, 
        {
            "frameNum": 137, 
            "VMAF_feature_adm2_score": 0.9771398694906692, 
            "VMAF_feature_motion2_score": 3.932455, 
            "VMAF_feature_vif_scale0_score": 0.6296660722462497, 
            "VMAF_feature_vif_scale1_score": 0.9280304753767225, 
            "VMAF_feature_vif_scale2_score": 0.9645961618141994, 
            "VMAF_feature_vif_scale3_score": 0.9806663020952364, 
            "VMAF_score": 94.1796612689838
        }, 
        {
            "frameNum": 138, 
            "VMAF_feature_adm2_score": 0.976119169290275, 
            "VMAF_feature_motion2_score": 3.897183, 
            "VMAF_feature_vif_scale0_score": 0.6189527842016412, 
            "VMAF_feature_vif_scale1_score": 0.9172235757765541, 
            "VMAF_feature_vif_scale2_score": 0.9576011692654435, 
            "VMAF_feature_vif_scale3_score": 0.9762532653392957, 
            "VMAF_score": 93.24406037073139
        }, 
        {
            "frameNum": 139, 
            "VMAF_feature_adm2_score": 0.973748185308196, 
            "VMAF_feature_motion2_score": 3.823355, 
            "VMAF_feature_vif_scale0_score": 0.5831783522146023, 
            "VMAF_feature_vif_scale1_score": 0.9152351001515374, 
            "VMAF_feature_vif_scale2_score": 0.9591376998307449, 
            "VMAF_feature_vif_scale3_score": 0.9778018790160826, 
            "VMAF_score": 92.8535461641478
        }, 
        {
            "frameNum": 140, 
            "VMAF_feature_adm2_score": 0.9714931223727752, 
            "VMAF_feature_motion2_score": 3.655462, 
            "VMAF_feature_vif_scale0_score": 0.5946669348729582, 
            "VMAF_feature_vif_scale1_score": 0.9014673635560746, 
            "VMAF_feature_vif_scale2_score": 0.9490154165397044, 
            "VMAF_feature_vif_scale3_score": 0.9710213500133452, 
            "VMAF_score": 91.16256345496578
        }, 
        {
            "frameNum": 141, 
            "VMAF_feature_adm2_score": 0.9724567870431375, 
            "VMAF_feature_motion2_score": 3.441622, 
            "VMAF_feature_vif_scale0_score": 0.595327455659093, 
            "VMAF_feature_vif_scale1_score": 0.9152846894446139, 
            "VMAF_feature_vif_scale2_score": 0.9588700077418909, 
            "VMAF_feature_vif_scale3_score": 0.9772244801151244, 
            "VMAF_score": 92.04710532659928
        }, 
        {
            "frameNum": 142, 
            "VMAF_feature_adm2_score": 0.9688628260466683, 
            "VMAF_feature_motion2_score": 3.441622, 
            "VMAF_feature_vif_scale0_score": 0.5827129075814244, 
            "VMAF_feature_vif_scale1_score": 0.9045337301752072, 
            "VMAF_feature_vif_scale2_score": 0.9523557399677245, 
            "VMAF_feature_vif_scale3_score": 0.9736459571116, 
            "VMAF_score": 90.70465952972323
        }, 
        {
            "frameNum": 143, 
            "VMAF_feature_adm2_score": 0.9621711132704635, 
            "VMAF_feature_motion2_score": 3.561186, 
            "VMAF_feature_vif_scale0_score": 0.5347026948146707, 
            "VMAF_feature_vif_scale1_score": 0.8930408246001892, 
            "VMAF_feature_vif_scale2_score": 0.947503267273038, 
            "VMAF_feature_vif_scale3_score": 0.9712539029257399, 
            "VMAF_score": 89.06064412991321
        }, 
        {
            "frameNum": 144, 
            "VMAF_feature_adm2_score": 0.9631326076978745, 
            "VMAF_feature_motion2_score": 3.753288, 
            "VMAF_feature_vif_scale0_score": 0.5740954850914678, 
            "VMAF_feature_vif_scale1_score": 0.9029789471794942, 
            "VMAF_feature_vif_scale2_score": 0.9516988316907387, 
            "VMAF_feature_vif_scale3_score": 0.9733346256270269, 
            "VMAF_score": 89.80184399941398
        }, 
        {
            "frameNum": 145, 
            "VMAF_feature_adm2_score": 0.9601830182000723, 
            "VMAF_feature_motion2_score": 4.053073, 
            "VMAF_feature_vif_scale0_score": 0.5529314187452964, 
            "VMAF_feature_vif_scale1_score": 0.8975707342727434, 
            "VMAF_feature_vif_scale2_score": 0.9494388593456429, 
            "VMAF_feature_vif_scale3_score": 0.972478345347485, 
            "VMAF_score": 89.37765916639641
        }, 
        {
            "frameNum": 146, 
            "VMAF_feature_adm2_score": 0.958208185589593, 
            "VMAF_feature_motion2_score": 4.45961, 
            "VMAF_feature_vif_scale0_score": 0.5582777747800141, 
            "VMAF_feature_vif_scale1_score": 0.8945330833967847, 
            "VMAF_feature_vif_scale2_score": 0.9462331473893354, 
            "VMAF_feature_vif_scale3_score": 0.9700470052943554, 
            "VMAF_score": 89.09782282048056
        }, 
        {
            "frameNum": 147, 
            "VMAF_feature_adm2_score": 0.952570998993744, 
            "VMAF_feature_motion2_score": 4.715539, 
            "VMAF_feature_vif_scale0_score": 0.5054196686022034, 
            "VMAF_feature_vif_scale1_score": 0.8896648402899402, 
            "VMAF_feature_vif_scale2_score": 0.9465075335614316, 
            "VMAF_feature_vif_scale3_score": 0.9712286591902958, 
            "VMAF_score": 88.34964422612912
        }, 
        {
            "frameNum": 148, 
            "VMAF_feature_adm2_score": 0.9576606888233743, 
            "VMAF_feature_motion2_score": 4.747415, 
            "VMAF_feature_vif_scale0_score": 0.557029999363243, 
            "VMAF_feature_vif_scale1_score": 0.8977587769159494, 
            "VMAF_feature_vif_scale2_score": 0.9490155839285779, 
            "VMAF_feature_vif_scale3_score": 0.9722563933754459, 
            "VMAF_score": 89.61460515569516
        }, 
        {
            "frameNum": 149, 
            "VMAF_feature_adm2_score": 0.9546201148662606, 
            "VMAF_feature_motion2_score": 4.725072, 
            "VMAF_feature_vif_scale0_score": 0.5398094799916433, 
            "VMAF_feature_vif_scale1_score": 0.8951816964732245, 
            "VMAF_feature_vif_scale2_score": 0.947283608928819, 
            "VMAF_feature_vif_scale3_score": 0.9705374287688803, 
            "VMAF_score": 88.74224925530685
        }, 
        {
            "frameNum": 150, 
            "VMAF_feature_adm2_score": 0.950600233936768, 
            "VMAF_feature_motion2_score": 4.316776, 
            "VMAF_feature_vif_scale0_score": 0.5352371500088327, 
            "VMAF_feature_vif_scale1_score": 0.8862194968209318, 
            "VMAF_feature_vif_scale2_score": 0.9406895438898077, 
            "VMAF_feature_vif_scale3_score": 0.9659525781335321, 
            "VMAF_score": 86.76819568685328
        }, 
        {
            "frameNum": 151, 
            "VMAF_feature_adm2_score": 0.9483735000153535, 
            "VMAF_feature_motion2_score": 4.016878, 
            "VMAF_feature_vif_scale0_score": 0.4824051687634034, 
            "VMAF_feature_vif_scale1_score": 0.887729568311803, 
            "VMAF_feature_vif_scale2_score": 0.9448104120397759, 
            "VMAF_feature_vif_scale3_score": 0.9690118356842807, 
            "VMAF_score": 86.43698931731223
        }, 
        {
            "frameNum": 152, 
            "VMAF_feature_adm2_score": 0.9523706783953941, 
            "VMAF_feature_motion2_score": 3.681683, 
            "VMAF_feature_vif_scale0_score": 0.5453657764307687, 
            "VMAF_feature_vif_scale1_score": 0.8876324581164341, 
            "VMAF_feature_vif_scale2_score": 0.9395952885677035, 
            "VMAF_feature_vif_scale3_score": 0.9641728120288034, 
            "VMAF_score": 86.20209837449623
        }, 
        {
            "frameNum": 153, 
            "VMAF_feature_adm2_score": 0.9518160586262912, 
            "VMAF_feature_motion2_score": 3.201169, 
            "VMAF_feature_vif_scale0_score": 0.5344909027445516, 
            "VMAF_feature_vif_scale1_score": 0.8803060384491284, 
            "VMAF_feature_vif_scale2_score": 0.9328329510420132, 
            "VMAF_feature_vif_scale3_score": 0.9574123390907123, 
            "VMAF_score": 84.71930488214078
        }, 
        {
            "frameNum": 154, 
            "VMAF_feature_adm2_score": 0.9546042555094053, 
            "VMAF_feature_motion2_score": 2.615812, 
            "VMAF_feature_vif_scale0_score": 0.5310932269095463, 
            "VMAF_feature_vif_scale1_score": 0.8895244701164721, 
            "VMAF_feature_vif_scale2_score": 0.9401738593638084, 
            "VMAF_feature_vif_scale3_score": 0.963386844950579, 
            "VMAF_score": 85.39852278754941
        }, 
        {
            "frameNum": 155, 
            "VMAF_feature_adm2_score": 0.9545956416757505, 
            "VMAF_feature_motion2_score": 2.615812, 
            "VMAF_feature_vif_scale0_score": 0.49689104761284575, 
            "VMAF_feature_vif_scale1_score": 0.8864633952510877, 
            "VMAF_feature_vif_scale2_score": 0.9418675476029778, 
            "VMAF_feature_vif_scale3_score": 0.966779055697317, 
            "VMAF_score": 85.79678694774992
        }, 
        {
            "frameNum": 156, 
            "VMAF_feature_adm2_score": 0.961904338762684, 
            "VMAF_feature_motion2_score": 2.925335, 
            "VMAF_feature_vif_scale0_score": 0.5514122427238717, 
            "VMAF_feature_vif_scale1_score": 0.8993433871266582, 
            "VMAF_feature_vif_scale2_score": 0.9471818072574583, 
            "VMAF_feature_vif_scale3_score": 0.9690741163111036, 
            "VMAF_score": 88.04357721092482
        }, 
        {
            "frameNum": 157, 
            "VMAF_feature_adm2_score": 0.9633622816458862, 
            "VMAF_feature_motion2_score": 2.968229, 
            "VMAF_feature_vif_scale0_score": 0.5603027242223303, 
            "VMAF_feature_vif_scale1_score": 0.9029571718779956, 
            "VMAF_feature_vif_scale2_score": 0.9500152461044405, 
            "VMAF_feature_vif_scale3_score": 0.9711292443847439, 
            "VMAF_score": 88.68092544475802
        }, 
        {
            "frameNum": 158, 
            "VMAF_feature_adm2_score": 0.9615673423323263, 
            "VMAF_feature_motion2_score": 3.21821, 
            "VMAF_feature_vif_scale0_score": 0.5548467806200702, 
            "VMAF_feature_vif_scale1_score": 0.8932265777941082, 
            "VMAF_feature_vif_scale2_score": 0.9412696802726269, 
            "VMAF_feature_vif_scale3_score": 0.9647163587535297, 
            "VMAF_score": 87.71962432746253
        }, 
        {
            "frameNum": 159, 
            "VMAF_feature_adm2_score": 0.963323927300909, 
            "VMAF_feature_motion2_score": 3.337995, 
            "VMAF_feature_vif_scale0_score": 0.5190767484154634, 
            "VMAF_feature_vif_scale1_score": 0.886393971102237, 
            "VMAF_feature_vif_scale2_score": 0.9399705098815943, 
            "VMAF_feature_vif_scale3_score": 0.9638776539322492, 
            "VMAF_score": 88.16381595584039
        }, 
        {
            "frameNum": 160, 
            "VMAF_feature_adm2_score": 0.9671464344437707, 
            "VMAF_feature_motion2_score": 3.600564, 
            "VMAF_feature_vif_scale0_score": 0.5666349883088174, 
            "VMAF_feature_vif_scale1_score": 0.9055349472676151, 
            "VMAF_feature_vif_scale2_score": 0.9505916902285678, 
            "VMAF_feature_vif_scale3_score": 0.9708075134656325, 
            "VMAF_score": 90.2461695525497
        }, 
        {
            "frameNum": 161, 
            "VMAF_feature_adm2_score": 0.9688400995199763, 
            "VMAF_feature_motion2_score": 3.743303, 
            "VMAF_feature_vif_scale0_score": 0.5809805907347412, 
            "VMAF_feature_vif_scale1_score": 0.9092463449765593, 
            "VMAF_feature_vif_scale2_score": 0.9513137790949827, 
            "VMAF_feature_vif_scale3_score": 0.9707316696250502, 
            "VMAF_score": 90.79728946256179
        }, 
        {
            "frameNum": 162, 
            "VMAF_feature_adm2_score": 0.9715387853057094, 
            "VMAF_feature_motion2_score": 3.743303, 
            "VMAF_feature_vif_scale0_score": 0.5627177018470483, 
            "VMAF_feature_vif_scale1_score": 0.923938578195906, 
            "VMAF_feature_vif_scale2_score": 0.9636357673930452, 
            "VMAF_feature_vif_scale3_score": 0.9796260394646041, 
            "VMAF_score": 92.65702171479926
        }, 
        {
            "frameNum": 163, 
            "VMAF_feature_adm2_score": 0.9670719236355346, 
            "VMAF_feature_motion2_score": 3.935958, 
            "VMAF_feature_vif_scale0_score": 0.5792303386634409, 
            "VMAF_feature_vif_scale1_score": 0.9126070538796179, 
            "VMAF_feature_vif_scale2_score": 0.9551212474361267, 
            "VMAF_feature_vif_scale3_score": 0.9738249922417926, 
            "VMAF_score": 91.06193299651368
        }, 
        {
            "frameNum": 164, 
            "VMAF_feature_adm2_score": 0.9674594292651131, 
            "VMAF_feature_motion2_score": 3.935958, 
            "VMAF_feature_vif_scale0_score": 0.5734210762545837, 
            "VMAF_feature_vif_scale1_score": 0.9112353217911171, 
            "VMAF_feature_vif_scale2_score": 0.9547926161400705, 
            "VMAF_feature_vif_scale3_score": 0.9743039315275916, 
            "VMAF_score": 91.17195218429917
        }, 
        {
            "frameNum": 165, 
            "VMAF_feature_adm2_score": 0.9655844211955684, 
            "VMAF_feature_motion2_score": 3.954124, 
            "VMAF_feature_vif_scale0_score": 0.569636841528123, 
            "VMAF_feature_vif_scale1_score": 0.9055967134725548, 
            "VMAF_feature_vif_scale2_score": 0.9522755691990415, 
            "VMAF_feature_vif_scale3_score": 0.973035314194863, 
            "VMAF_score": 90.577241228601
        }, 
        {
            "frameNum": 166, 
            "VMAF_feature_adm2_score": 0.9671272336365229, 
            "VMAF_feature_motion2_score": 3.872361, 
            "VMAF_feature_vif_scale0_score": 0.5619003749459788, 
            "VMAF_feature_vif_scale1_score": 0.9163782220200674, 
            "VMAF_feature_vif_scale2_score": 0.9596912502739263, 
            "VMAF_feature_vif_scale3_score": 0.9780254220492807, 
            "VMAF_score": 91.54973150949981
        }, 
        {
            "frameNum": 167, 
            "VMAF_feature_adm2_score": 0.9679767639333696, 
            "VMAF_feature_motion2_score": 3.757536, 
            "VMAF_feature_vif_scale0_score": 0.5750170503453409, 
            "VMAF_feature_vif_scale1_score": 0.9125205764512222, 
            "VMAF_feature_vif_scale2_score": 0.955861827957997, 
            "VMAF_feature_vif_scale3_score": 0.9744929118828689, 
            "VMAF_score": 91.13136960118501
        }, 
        {
            "frameNum": 168, 
            "VMAF_feature_adm2_score": 0.9660624656643999, 
            "VMAF_feature_motion2_score": 3.757536, 
            "VMAF_feature_vif_scale0_score": 0.5687257429683514, 
            "VMAF_feature_vif_scale1_score": 0.9073102102423375, 
            "VMAF_feature_vif_scale2_score": 0.9532772028135957, 
            "VMAF_feature_vif_scale3_score": 0.9741617237626682, 
            "VMAF_score": 90.58071548988563
        }, 
        {
            "frameNum": 169, 
            "VMAF_feature_adm2_score": 0.9675535814943407, 
            "VMAF_feature_motion2_score": 3.803324, 
            "VMAF_feature_vif_scale0_score": 0.5694747544809539, 
            "VMAF_feature_vif_scale1_score": 0.9064845300858579, 
            "VMAF_feature_vif_scale2_score": 0.9531447983076441, 
            "VMAF_feature_vif_scale3_score": 0.9734250877240485, 
            "VMAF_score": 90.88988811311498
        }, 
        {
            "frameNum": 170, 
            "VMAF_feature_adm2_score": 0.9678031245574518, 
            "VMAF_feature_motion2_score": 3.965713, 
            "VMAF_feature_vif_scale0_score": 0.563307456000033, 
            "VMAF_feature_vif_scale1_score": 0.9146694758341943, 
            "VMAF_feature_vif_scale2_score": 0.9592595550449838, 
            "VMAF_feature_vif_scale3_score": 0.9784121040282959, 
            "VMAF_score": 91.81381930408868
        }, 
        {
            "frameNum": 171, 
            "VMAF_feature_adm2_score": 0.9674935869872974, 
            "VMAF_feature_motion2_score": 4.162318, 
            "VMAF_feature_vif_scale0_score": 0.5737504551644999, 
            "VMAF_feature_vif_scale1_score": 0.908700775592683, 
            "VMAF_feature_vif_scale2_score": 0.9540967921818602, 
            "VMAF_feature_vif_scale3_score": 0.9743731726292082, 
            "VMAF_score": 91.42015604010093
        }, 
        {
            "frameNum": 172, 
            "VMAF_feature_adm2_score": 0.9640120779335644, 
            "VMAF_feature_motion2_score": 4.392033, 
            "VMAF_feature_vif_scale0_score": 0.568173013053185, 
            "VMAF_feature_vif_scale1_score": 0.906224589060531, 
            "VMAF_feature_vif_scale2_score": 0.9534052133837146, 
            "VMAF_feature_vif_scale3_score": 0.9738624949376337, 
            "VMAF_score": 90.87495540462821
        }, 
        {
            "frameNum": 173, 
            "VMAF_feature_adm2_score": 0.9646359440788687, 
            "VMAF_feature_motion2_score": 4.42685, 
            "VMAF_feature_vif_scale0_score": 0.5668192338728778, 
            "VMAF_feature_vif_scale1_score": 0.903506131128739, 
            "VMAF_feature_vif_scale2_score": 0.9513294946200651, 
            "VMAF_feature_vif_scale3_score": 0.9724236798879159, 
            "VMAF_score": 90.84518497616926
        }, 
        {
            "frameNum": 174, 
            "VMAF_feature_adm2_score": 0.9657430037087955, 
            "VMAF_feature_motion2_score": 4.477645, 
            "VMAF_feature_vif_scale0_score": 0.5626942989703964, 
            "VMAF_feature_vif_scale1_score": 0.9083737311911078, 
            "VMAF_feature_vif_scale2_score": 0.9547740675311378, 
            "VMAF_feature_vif_scale3_score": 0.9748296556240769, 
            "VMAF_score": 91.49109474096853
        }, 
        {
            "frameNum": 175, 
            "VMAF_feature_adm2_score": 0.965831529248706, 
            "VMAF_feature_motion2_score": 4.511228, 
            "VMAF_feature_vif_scale0_score": 0.5692600906497225, 
            "VMAF_feature_vif_scale1_score": 0.9035026905025271, 
            "VMAF_feature_vif_scale2_score": 0.9518242215974174, 
            "VMAF_feature_vif_scale3_score": 0.9731498908703512, 
            "VMAF_score": 91.27820606534581
        }, 
        {
            "frameNum": 176, 
            "VMAF_feature_adm2_score": 0.9627441463652524, 
            "VMAF_feature_motion2_score": 4.511228, 
            "VMAF_feature_vif_scale0_score": 0.5641124952385947, 
            "VMAF_feature_vif_scale1_score": 0.9018143253086502, 
            "VMAF_feature_vif_scale2_score": 0.9512570401913306, 
            "VMAF_feature_vif_scale3_score": 0.9731781122902818, 
            "VMAF_score": 90.59474423068491
        }, 
        {
            "frameNum": 177, 
            "VMAF_feature_adm2_score": 0.9648460816380006, 
            "VMAF_feature_motion2_score": 4.065296, 
            "VMAF_feature_vif_scale0_score": 0.5621799933809304, 
            "VMAF_feature_vif_scale1_score": 0.8962854065778281, 
            "VMAF_feature_vif_scale2_score": 0.946431185071815, 
            "VMAF_feature_vif_scale3_score": 0.9693194116438779, 
            "VMAF_score": 90.00446675708278
        }, 
        {
            "frameNum": 178, 
            "VMAF_feature_adm2_score": 0.9614741922857785, 
            "VMAF_feature_motion2_score": 4.047805, 
            "VMAF_feature_vif_scale0_score": 0.5481082103004851, 
            "VMAF_feature_vif_scale1_score": 0.8910330414824338, 
            "VMAF_feature_vif_scale2_score": 0.9437054246451004, 
            "VMAF_feature_vif_scale3_score": 0.9683638926410314, 
            "VMAF_score": 89.08041510729731
        }, 
        {
            "frameNum": 179, 
            "VMAF_feature_adm2_score": 0.9609200770372154, 
            "VMAF_feature_motion2_score": 4.047805, 
            "VMAF_feature_vif_scale0_score": 0.5398112770225922, 
            "VMAF_feature_vif_scale1_score": 0.8808528126394941, 
            "VMAF_feature_vif_scale2_score": 0.9373914259630606, 
            "VMAF_feature_vif_scale3_score": 0.9638770362196262, 
            "VMAF_score": 88.34719927642419
        }
    ], 
    "aggregate": {
        "VMAF_feature_adm2_score": 0.9739484098613218, 
        "VMAF_feature_motion2_score": 6.353967877777778, 
        "VMAF_feature_vif_scale0_score": 0.5902159432690328, 
        "VMAF_feature_vif_scale1_score": 0.9234512150952535, 
        "VMAF_feature_vif_scale2_score": 0.9625449534562607, 
        "VMAF_feature_vif_scale3_score": 0.9791921566865175, 
        "VMAF_score": 95.02583666033867, 
        "method": "mean"
    }
}
